{
  "headers": {
    "date": "Wed, 21 Oct 2020 17:27:00 GMT",
    "cf-ray": "5e5cafd36addba1c-ATL",
    "x-content-type-options": "nosniff",
    "x-xss-protection": "1; mode=block",
    "x-permitted-cross-domain-policies": "none",
    "cache-control": "max-age=0, private, must-revalidate",
    "content-security-policy": "connect-src 'self' https://assets.gitlab-static.net wss://gitlab.com https://sentry.gitlab.net https://customers.gitlab.com https://snowplow.trx.gitlab.net https://sourcegraph.com https://ec2.ap-east-1.amazonaws.com https://ec2.ap-northeast-1.amazonaws.com https://ec2.ap-northeast-2.amazonaws.com https://ec2.ap-northeast-3.amazonaws.com https://ec2.ap-south-1.amazonaws.com https://ec2.ap-southeast-1.amazonaws.com https://ec2.ap-southeast-2.amazonaws.com https://ec2.ca-central-1.amazonaws.com https://ec2.eu-central-1.amazonaws.com https://ec2.eu-north-1.amazonaws.com https://ec2.eu-west-1.amazonaws.com https://ec2.eu-west-2.amazonaws.com https://ec2.eu-west-3.amazonaws.com https://ec2.me-south-1.amazonaws.com https://ec2.sa-east-1.amazonaws.com https://ec2.us-east-1.amazonaws.com https://ec2.us-east-2.amazonaws.com https://ec2.us-west-1.amazonaws.com https://ec2.us-west-2.amazonaws.com https://ec2.af-south-1.amazonaws.com https://iam.amazonaws.com; frame-ancestors 'self'; frame-src 'self' https://www.google.com/recaptcha/ https://www.recaptcha.net/ https://content.googleapis.com https://content-cloudresourcemanager.googleapis.com https://content-compute.googleapis.com https://content-cloudbilling.googleapis.com https://*.codesandbox.io; img-src * data: blob:; object-src 'none'; script-src 'self' 'unsafe-inline' 'unsafe-eval' https://assets.gitlab-static.net https://www.google.com/recaptcha/ https://www.gstatic.com/recaptcha/ https://www.recaptcha.net/ https://apis.google.com 'nonce-Z2xR8nLogcBYtoOU+jpchg=='; style-src 'self' 'unsafe-inline' https://assets.gitlab-static.net; worker-src https://assets.gitlab-static.net https://gitlab.com blob: data:",
    "strict-transport-security": "max-age=31536000",
    "x-request-id": "MBRSG6ZbZt6",
    "cf-request-id": "05edcc38260000ba1c6da2a000000001",
    "vary": "Accept-Encoding",
    "set-cookie": "__cfduid=d749a6a71f0b8e827688163477a0958d31603301220; expires=Fri, 20-Nov-20 17:27:00 GMT; path=/; domain=.gitlab.com; HttpOnly; SameSite=Lax; Secure,experimentation_subject_id=eyJfcmFpbHMiOnsibWVzc2FnZSI6IkltUXhNVFk1TlRSbExUTXdOak10TkRRMVl5MWhOVE5pTFRJNFkyTm1OR016T1dGbVppST0iLCJleHAiOm51bGwsInB1ciI6ImNvb2tpZS5leHBlcmltZW50YXRpb25fc3ViamVjdF9pZCJ9fQ%3D%3D--c49aad4f555b66e5fccd8904895133ae87866e54; path=/; expires=Sun, 21 Oct 2040 17:27:00 GMT; secure; HttpOnly; SameSite=None,_gitlab_session=f6732754c9da4e8315df8ae03cc01ecc; path=/; expires=Wed, 21 Oct 2020 19:27:00 GMT; secure; HttpOnly; SameSite=None",
    "referrer-policy": "strict-origin-when-cross-origin",
    "server": "cloudflare",
    "x-runtime": "0.220848",
    "content-type": "text/html; charset=utf-8",
    "x-gitlab-feature-category": "source_code_management",
    "x-download-options": "noopen",
    "expect-ct": "max-age=604800, report-uri=\"https://report-uri.cloudflare.com/cdn-cgi/beacon/expect-ct\"",
    "gitlab-lb": "fe-09-lb-gprd",
    "x-frame-options": "DENY",
    "x-ua-compatible": "IE=edge",
    "gitlab-sv": "web-12-sv-gprd",
    "cf-cache-status": "DYNAMIC"
  },
  "url": "https://gitlab.com/DrewKarriker/nasa-deno/-/tree/master/deno_dir/deps/https/raw.githubusercontent.com"
}