{
  "headers": {
    "accept-ranges": "bytes",
    "etag": "\"6e5cb98b72a1d131578b3456c6574048\"",
    "expect-ct": "max-age=604800, report-uri=\"https://report-uri.cloudflare.com/cdn-cgi/beacon/expect-ct\"",
    "content-type": "application/typescript; charset=utf-8",
    "report-to": "{\"endpoints\":[{\"url\":\"https:\\/\\/a.nel.cloudflare.com\\/report?lkg-colo=27&lkg-time=1603301013\"}],\"group\":\"cf-nel\",\"max_age\":604800}",
    "access-control-allow-origin": "*",
    "age": "1354169",
    "x-amz-request-id": "DA9A7A6AEE0FBC0B",
    "alt-svc": "h3-27=\":443\"; ma=86400, h3-28=\":443\"; ma=86400, h3-29=\":443\"; ma=86400",
    "cf-ray": "5e5caac4bf2d183b-ATL",
    "x-amz-version-id": "qeNIIYE7U6YjLB1Mal9WlHFRJru8Wb8B",
    "nel": "{\"report_to\":\"cf-nel\",\"max_age\":604800}",
    "vary": "Accept-Encoding",
    "cf-cache-status": "HIT",
    "date": "Wed, 21 Oct 2020 17:23:33 GMT",
    "last-modified": "Tue, 06 Oct 2020 01:03:42 GMT",
    "server": "cloudflare",
    "content-length": "1385",
    "set-cookie": "__cfduid=d6a4caafdb503ea41ed957aa9636dd35e1603301013; expires=Fri, 20-Nov-20 17:23:33 GMT; path=/; domain=.deno.land; HttpOnly; SameSite=Lax; Secure",
    "x-amz-id-2": "mHPNt9Lgv7Jsc0gYyC7dhHYaBqSGINb2pnhFxuCApLpxmyjTMYCaV8b6b8aDoMH3VCg5vQUV9YY=",
    "cache-control": "public, max-age=31536000, immutable",
    "cf-request-id": "05edc90ef40000183bbf84a000000001"
  },
  "url": "https://deno.land/x/oak@v6.3.1/deps.ts"
}