{
  "headers": {
    "report-to": "{\"endpoints\":[{\"url\":\"https:\\/\\/a.nel.cloudflare.com\\/report?lkg-colo=27&lkg-time=1603301014\"}],\"group\":\"cf-nel\",\"max_age\":604800}",
    "nel": "{\"report_to\":\"cf-nel\",\"max_age\":604800}",
    "last-modified": "Sat, 03 Oct 2020 12:59:10 GMT",
    "access-control-allow-origin": "*",
    "content-type": "application/typescript; charset=utf-8",
    "cf-cache-status": "HIT",
    "cf-ray": "5e5caac7f8d4183b-ATL",
    "age": "218018",
    "date": "Wed, 21 Oct 2020 17:23:33 GMT",
    "accept-ranges": "bytes",
    "server": "cloudflare",
    "x-amz-request-id": "6FF965DB800661B5",
    "content-length": "5465",
    "set-cookie": "__cfduid=d6a4caafdb503ea41ed957aa9636dd35e1603301013; expires=Fri, 20-Nov-20 17:23:33 GMT; path=/; domain=.deno.land; HttpOnly; SameSite=Lax; Secure",
    "etag": "\"6870044aa372f58566b6cb31d954fe66\"",
    "vary": "Accept-Encoding",
    "cf-request-id": "05edc910fb0000183bbf3c8000000001",
    "alt-svc": "h3-27=\":443\"; ma=86400, h3-28=\":443\"; ma=86400, h3-29=\":443\"; ma=86400",
    "cache-control": "public, max-age=31536000, immutable",
    "x-amz-id-2": "WhDYbXU0Rptkyp2sKAmIQD6Hk0lHHdK5lM3CzfoKZ0o8Sd8Op9NMwYXp5gLcjkMjnmCIP79n7gE=",
    "x-amz-version-id": "zLbudEqn0RU1Ereg73zwb53aytt7z5sF",
    "expect-ct": "max-age=604800, report-uri=\"https://report-uri.cloudflare.com/cdn-cgi/beacon/expect-ct\""
  },
  "url": "https://deno.land/std@0.73.0/testing/_diff.ts"
}