{
  "headers": {
    "expect-ct": "max-age=604800, report-uri=\"https://report-uri.cloudflare.com/cdn-cgi/beacon/expect-ct\"",
    "nel": "{\"report_to\":\"cf-nel\",\"max_age\":604800}",
    "cf-cache-status": "HIT",
    "cf-ray": "5e5caac4bf1e183b-ATL",
    "content-type": "application/typescript; charset=utf-8",
    "content-length": "1279",
    "cache-control": "public, max-age=31536000, immutable",
    "etag": "\"e79f3435b97775eac439a7a51ce17267\"",
    "cf-request-id": "05edc90ef10000183be20a2000000001",
    "x-amz-version-id": "j95MvdecWg4pbUN5RtfHQq2HAFOTQVSj",
    "set-cookie": "__cfduid=d6a4caafdb503ea41ed957aa9636dd35e1603301013; expires=Fri, 20-Nov-20 17:23:33 GMT; path=/; domain=.deno.land; HttpOnly; SameSite=Lax; Secure",
    "report-to": "{\"endpoints\":[{\"url\":\"https:\\/\\/a.nel.cloudflare.com\\/report?lkg-colo=27&lkg-time=1603301013\"}],\"group\":\"cf-nel\",\"max_age\":604800}",
    "vary": "Accept-Encoding",
    "x-amz-id-2": "6hWegLHZPlv3ED0CyO2Xu4mA4HnSL/tM5FKGVdzWS1Q0WvcIBaA4m9OudlLm9QcjHOCbOhESCzc=",
    "last-modified": "Tue, 06 Oct 2020 01:03:42 GMT",
    "access-control-allow-origin": "*",
    "accept-ranges": "bytes",
    "server": "cloudflare",
    "alt-svc": "h3-27=\":443\"; ma=86400, h3-28=\":443\"; ma=86400, h3-29=\":443\"; ma=86400",
    "x-amz-request-id": "8YAM8X2W6J2W8SFP",
    "date": "Wed, 21 Oct 2020 17:23:33 GMT",
    "age": "1354169"
  },
  "url": "https://deno.land/x/oak@v6.3.1/middleware.ts"
}