{
  "headers": {
    "report-to": "{\"endpoints\":[{\"url\":\"https:\\/\\/a.nel.cloudflare.com\\/report?lkg-colo=27&lkg-time=1603301013\"}],\"group\":\"cf-nel\",\"max_age\":604800}",
    "nel": "{\"report_to\":\"cf-nel\",\"max_age\":604800}",
    "vary": "Accept-Encoding",
    "etag": "\"e387015f5b42864b34449e9a3cc5d93b\"",
    "expect-ct": "max-age=604800, report-uri=\"https://report-uri.cloudflare.com/cdn-cgi/beacon/expect-ct\"",
    "cf-cache-status": "HIT",
    "cf-ray": "5e5caac56927183b-ATL",
    "x-amz-version-id": "Qj2U5GQ3dSU2WhHVXdMSgitcqa5LAARJ",
    "x-amz-request-id": "F202A6ACF734F41F",
    "server": "cloudflare",
    "content-type": "application/typescript; charset=utf-8",
    "access-control-allow-origin": "*",
    "date": "Wed, 21 Oct 2020 17:23:33 GMT",
    "content-length": "4022",
    "accept-ranges": "bytes",
    "cache-control": "public, max-age=31536000, immutable",
    "cf-request-id": "05edc90f620000183bcf125000000001",
    "set-cookie": "__cfduid=d6a4caafdb503ea41ed957aa9636dd35e1603301013; expires=Fri, 20-Nov-20 17:23:33 GMT; path=/; domain=.deno.land; HttpOnly; SameSite=Lax; Secure",
    "x-amz-id-2": "xBZg4C44tN+uY2kF0BPBudWOPjj+BJ0MyVti/gpQzNKZH1ozLyWc7+iXe4w7XNZ6RwOIQsEyEYs=",
    "alt-svc": "h3-27=\":443\"; ma=86400, h3-28=\":443\"; ma=86400, h3-29=\":443\"; ma=86400",
    "last-modified": "Tue, 06 Oct 2020 01:03:42 GMT",
    "age": "218018"
  },
  "url": "https://deno.land/x/oak@v6.3.1/negotiation/language.ts"
}