{
  "headers": {
    "cf-ray": "5e5caac7f8c9183b-ATL",
    "access-control-allow-origin": "*",
    "content-type": "application/typescript; charset=utf-8",
    "content-length": "2523",
    "cache-control": "public, max-age=31536000, immutable",
    "cf-request-id": "05edc910f90000183be3207000000001",
    "nel": "{\"report_to\":\"cf-nel\",\"max_age\":604800}",
    "expect-ct": "max-age=604800, report-uri=\"https://report-uri.cloudflare.com/cdn-cgi/beacon/expect-ct\"",
    "server": "cloudflare",
    "vary": "Accept-Encoding",
    "age": "1354769",
    "x-amz-version-id": "vo6E62ndI0uPlIx6PEq5VQyjZLof4dGf",
    "alt-svc": "h3-27=\":443\"; ma=86400, h3-28=\":443\"; ma=86400, h3-29=\":443\"; ma=86400",
    "x-amz-request-id": "72B2CB66DF81AD7A",
    "date": "Wed, 21 Oct 2020 17:23:33 GMT",
    "accept-ranges": "bytes",
    "report-to": "{\"endpoints\":[{\"url\":\"https:\\/\\/a.nel.cloudflare.com\\/report?lkg-colo=27&lkg-time=1603301014\"}],\"group\":\"cf-nel\",\"max_age\":604800}",
    "set-cookie": "__cfduid=d6a4caafdb503ea41ed957aa9636dd35e1603301013; expires=Fri, 20-Nov-20 17:23:33 GMT; path=/; domain=.deno.land; HttpOnly; SameSite=Lax; Secure",
    "last-modified": "Sat, 03 Oct 2020 12:59:10 GMT",
    "cf-cache-status": "HIT",
    "etag": "\"3613ebc39c1833bda31c9a944cd3acf5\"",
    "x-amz-id-2": "+GDx6Y7OPErXHc4H/2ynsJFZkX0zAUNAdY9NuDYisYN9hMhQ30V6737TVAdsDhHBEmbqQ7hDqDE="
  },
  "url": "https://deno.land/std@0.73.0/io/ioutil.ts"
}