{
  "headers": {
    "age": "218018",
    "access-control-allow-origin": "*",
    "content-length": "4051",
    "etag": "\"c876c20d78d13422387f74211378a89f\"",
    "expect-ct": "max-age=604800, report-uri=\"https://report-uri.cloudflare.com/cdn-cgi/beacon/expect-ct\"",
    "set-cookie": "__cfduid=d6a4caafdb503ea41ed957aa9636dd35e1603301013; expires=Fri, 20-Nov-20 17:23:33 GMT; path=/; domain=.deno.land; HttpOnly; SameSite=Lax; Secure",
    "report-to": "{\"endpoints\":[{\"url\":\"https:\\/\\/a.nel.cloudflare.com\\/report?lkg-colo=27&lkg-time=1603301013\"}],\"group\":\"cf-nel\",\"max_age\":604800}",
    "nel": "{\"report_to\":\"cf-nel\",\"max_age\":604800}",
    "date": "Wed, 21 Oct 2020 17:23:33 GMT",
    "x-amz-id-2": "rbBIqbi+unm53IAvR8PTjDTmOAZL8TIfDYRXQXaZtTEF3YfRZg3UuqwvpRyu9oyi/v8TX3TqA4I=",
    "x-amz-request-id": "99F8C479E3F863F7",
    "cf-ray": "5e5caac50817183b-ATL",
    "cache-control": "public, max-age=31536000, immutable",
    "last-modified": "Tue, 06 Oct 2020 01:03:42 GMT",
    "accept-ranges": "bytes",
    "cf-cache-status": "HIT",
    "cf-request-id": "05edc90f230000183bbb297000000001",
    "content-type": "application/typescript; charset=utf-8",
    "x-amz-version-id": "tyElUoJsnw4Y7lFPiTMpjMN11RCNmxfk",
    "vary": "Accept-Encoding",
    "server": "cloudflare",
    "alt-svc": "h3-27=\":443\"; ma=86400, h3-28=\":443\"; ma=86400, h3-29=\":443\"; ma=86400"
  },
  "url": "https://deno.land/x/oak@v6.3.1/content_disposition.ts"
}