{
  "headers": {
    "x-amz-request-id": "BA1B1C49EFD29DF0",
    "content-type": "application/typescript; charset=utf-8",
    "vary": "Accept-Encoding",
    "content-length": "14185",
    "x-amz-version-id": "e6nBIhb6OCkisJqHacbU_8lZ3plf0uEm",
    "last-modified": "Sat, 03 Oct 2020 12:59:10 GMT",
    "cf-cache-status": "HIT",
    "set-cookie": "__cfduid=d6a4caafdb503ea41ed957aa9636dd35e1603301013; expires=Fri, 20-Nov-20 17:23:33 GMT; path=/; domain=.deno.land; HttpOnly; SameSite=Lax; Secure",
    "etag": "\"eec4d5d03e1fe62fd33ea30e70ef109e\"",
    "x-amz-id-2": "qhdRD11kI43t4+CdfKqUR6FITdXybB2vtD4f+2jczd1ejcebbyyBLKlPCi0ssS1ZGFid6Ihg//s=",
    "date": "Wed, 21 Oct 2020 17:23:33 GMT",
    "nel": "{\"report_to\":\"cf-nel\",\"max_age\":604800}",
    "cf-request-id": "05edc90f610000183b2b3ea000000001",
    "alt-svc": "h3-27=\":443\"; ma=86400, h3-28=\":443\"; ma=86400, h3-29=\":443\"; ma=86400",
    "access-control-allow-origin": "*",
    "accept-ranges": "bytes",
    "cf-ray": "5e5caac5691f183b-ATL",
    "cache-control": "public, max-age=31536000, immutable",
    "expect-ct": "max-age=604800, report-uri=\"https://report-uri.cloudflare.com/cdn-cgi/beacon/expect-ct\"",
    "report-to": "{\"endpoints\":[{\"url\":\"https:\\/\\/a.nel.cloudflare.com\\/report?lkg-colo=27&lkg-time=1603301013\"}],\"group\":\"cf-nel\",\"max_age\":604800}",
    "server": "cloudflare",
    "age": "218018"
  },
  "url": "https://deno.land/std@0.73.0/ws/mod.ts"
}