{
  "headers": {
    "content-type": "text/plain; charset=utf-8",
    "etag": "W/\"248f0a8073d36a0c4ccb62866a564b57a31a6edc36ef4139541093f2728badbe\"",
    "expires": "Wed, 21 Oct 2020 17:28:36 GMT",
    "x-github-request-id": "53F0:0AA7:24F1CB:2A7E62:5F906E98",
    "date": "Wed, 21 Oct 2020 17:23:36 GMT",
    "cache-control": "max-age=300",
    "x-served-by": "cache-fty21349-FTY",
    "x-cache-hits": "0, 0",
    "strict-transport-security": "max-age=31536000",
    "vary": "Authorization,Accept-Encoding",
    "access-control-allow-origin": "*",
    "accept-ranges": "bytes",
    "connection": "keep-alive",
    "x-content-type-options": "nosniff",
    "x-cache": "MISS, MISS",
    "x-timer": "S1603301016.125158,VS0,VE97",
    "via": "1.1 varnish (Varnish/6.0), 1.1 varnish",
    "x-frame-options": "deny",
    "content-security-policy": "default-src 'none'; style-src 'unsafe-inline'; sandbox",
    "x-xss-protection": "1; mode=block",
    "source-age": "0",
    "x-fastly-request-id": "1c605f773602957e8149b716bd4509d42b255c94"
  },
  "url": "https://raw.githubusercontent.com/lodash/lodash/4.17.15-es/_cloneTypedArray.js"
}