{
  "headers": {
    "x-content-type-options": "nosniff",
    "cache-control": "max-age=300",
    "content-type": "text/plain; charset=utf-8",
    "x-github-request-id": "D88E:0AA7:24F17E:2A7E07:5F906E96",
    "access-control-allow-origin": "*",
    "expires": "Wed, 21 Oct 2020 17:28:34 GMT",
    "x-timer": "S1603301014.426089,VS0,VE174",
    "content-security-policy": "default-src 'none'; style-src 'unsafe-inline'; sandbox",
    "x-cache": "MISS, MISS",
    "vary": "Authorization,Accept-Encoding",
    "x-xss-protection": "1; mode=block",
    "via": "1.1 varnish (Varnish/6.0),1.1 varnish",
    "accept-ranges": "bytes",
    "x-fastly-request-id": "162a856e26222faa784889f86d9dba112967b60b",
    "strict-transport-security": "max-age=31536000",
    "x-cache-hits": "0, 0",
    "connection": "keep-alive",
    "date": "Wed, 21 Oct 2020 17:23:34 GMT",
    "x-served-by": "cache-fty21335-FTY",
    "source-age": "0",
    "etag": "W/\"ca6dc4ca96354cc35a21c6f6e1ad06787742d77c65cec571ac9972ece458e6c9\"",
    "x-frame-options": "deny"
  },
  "url": "https://raw.githubusercontent.com/lodash/lodash/4.17.15-es/invertBy.js"
}