{
  "headers": {
    "x-served-by": "cache-fty21367-FTY",
    "x-cache": "MISS, MISS",
    "x-timer": "S1603301014.465697,VS0,VE244",
    "vary": "Authorization,Accept-Encoding",
    "access-control-allow-origin": "*",
    "connection": "keep-alive",
    "x-xss-protection": "1; mode=block",
    "x-fastly-request-id": "8ea1b370fb2e94440465bfdced126cb361ae3ce2",
    "cache-control": "max-age=300",
    "via": "1.1 varnish (Varnish/6.0),1.1 varnish",
    "date": "Wed, 21 Oct 2020 17:23:34 GMT",
    "strict-transport-security": "max-age=31536000",
    "x-content-type-options": "nosniff",
    "x-cache-hits": "0, 0",
    "content-security-policy": "default-src 'none'; style-src 'unsafe-inline'; sandbox",
    "source-age": "0",
    "content-type": "text/plain; charset=utf-8",
    "expires": "Wed, 21 Oct 2020 17:28:34 GMT",
    "etag": "W/\"9c87c4a283ffff605cc6948e56d154c9466c401e7169efb5a3563279526fbde9\"",
    "x-frame-options": "deny",
    "accept-ranges": "bytes",
    "x-github-request-id": "4B74:0A81:239FE7:28F92D:5F906E96"
  },
  "url": "https://raw.githubusercontent.com/lodash/lodash/4.17.15-es/toUpper.js"
}