{
  "headers": {
    "expires": "Wed, 21 Oct 2020 17:28:35 GMT",
    "content-security-policy": "default-src 'none'; style-src 'unsafe-inline'; sandbox",
    "x-served-by": "cache-fty21334-FTY",
    "strict-transport-security": "max-age=31536000",
    "source-age": "0",
    "x-cache": "MISS, MISS",
    "content-type": "text/plain; charset=utf-8",
    "x-fastly-request-id": "27512df11756c312cfb49ee0fc5c8de975b7058a",
    "x-timer": "S1603301015.435225,VS0,VE93",
    "cache-control": "max-age=300",
    "accept-ranges": "bytes",
    "x-cache-hits": "0, 0",
    "via": "1.1 varnish (Varnish/6.0),1.1 varnish",
    "date": "Wed, 21 Oct 2020 17:23:35 GMT",
    "connection": "keep-alive",
    "x-content-type-options": "nosniff",
    "x-frame-options": "deny",
    "access-control-allow-origin": "*",
    "x-xss-protection": "1; mode=block",
    "vary": "Authorization,Accept-Encoding",
    "x-github-request-id": "A512:0AE6:276954:2D6D1D:5F906E97",
    "etag": "W/\"df632d4193f73810c87c8311def2fb894907070eeaeb013ee5f115268b126739\""
  },
  "url": "https://raw.githubusercontent.com/lodash/lodash/4.17.15-es/_baseNth.js"
}