{
  "headers": {
    "date": "Wed, 21 Oct 2020 17:23:34 GMT",
    "expires": "Wed, 21 Oct 2020 17:28:34 GMT",
    "x-github-request-id": "FA06:0A8A:240A37:29905E:5F906E96",
    "x-fastly-request-id": "6a6c01a7d3b7bb1d7581f2b4947bafda63efd925",
    "x-served-by": "cache-fty21375-FTY",
    "x-cache": "MISS, MISS",
    "accept-ranges": "bytes",
    "cache-control": "max-age=300",
    "x-cache-hits": "0, 0",
    "x-xss-protection": "1; mode=block",
    "access-control-allow-origin": "*",
    "content-security-policy": "default-src 'none'; style-src 'unsafe-inline'; sandbox",
    "x-content-type-options": "nosniff",
    "x-frame-options": "deny",
    "content-type": "text/plain; charset=utf-8",
    "source-age": "0",
    "etag": "W/\"dc0574a2b07e1d7ad74795978080c44dafed0b36d6f082e2bb3788b0b5c293a8\"",
    "x-timer": "S1603301014.257540,VS0,VE178",
    "connection": "keep-alive",
    "vary": "Authorization,Accept-Encoding",
    "via": "1.1 varnish (Varnish/6.0),1.1 varnish",
    "strict-transport-security": "max-age=31536000"
  },
  "url": "https://raw.githubusercontent.com/lodash/lodash/4.17.15-es/functionsIn.js"
}