{
  "headers": {
    "x-timer": "S1603301015.191658,VS0,VE112",
    "etag": "W/\"6175a7c05e890ad60c96c113552feb703127ac1eaa3a4e20de7b498b441235d3\"",
    "x-frame-options": "deny",
    "via": "1.1 varnish (Varnish/6.0), 1.1 varnish",
    "connection": "keep-alive",
    "content-type": "text/plain; charset=utf-8",
    "x-cache-hits": "0, 0",
    "strict-transport-security": "max-age=31536000",
    "x-content-type-options": "nosniff",
    "date": "Wed, 21 Oct 2020 17:23:35 GMT",
    "x-served-by": "cache-fty21369-FTY",
    "content-security-policy": "default-src 'none'; style-src 'unsafe-inline'; sandbox",
    "vary": "Authorization,Accept-Encoding",
    "source-age": "0",
    "x-fastly-request-id": "32b975d806068ca5539bdcd6e851dbbc5ae073ea",
    "cache-control": "max-age=300",
    "access-control-allow-origin": "*",
    "accept-ranges": "bytes",
    "x-github-request-id": "B9F0:0AE1:170F9D:1ACE88:5F906E97",
    "x-cache": "MISS, MISS",
    "expires": "Wed, 21 Oct 2020 17:28:35 GMT",
    "x-xss-protection": "1; mode=block"
  },
  "url": "https://raw.githubusercontent.com/lodash/lodash/4.17.15-es/_baseUnary.js"
}