{
  "headers": {
    "source-age": "0",
    "connection": "keep-alive",
    "cache-control": "max-age=300",
    "x-content-type-options": "nosniff",
    "x-cache": "MISS, MISS",
    "strict-transport-security": "max-age=31536000",
    "content-security-policy": "default-src 'none'; style-src 'unsafe-inline'; sandbox",
    "content-type": "text/plain; charset=utf-8",
    "access-control-allow-origin": "*",
    "x-timer": "S1603301014.488752,VS0,VE254",
    "expires": "Wed, 21 Oct 2020 17:28:34 GMT",
    "x-frame-options": "deny",
    "x-fastly-request-id": "d03da205fcc113862ace5b6378aef0695518ed00",
    "via": "1.1 varnish (Varnish/6.0), 1.1 varnish",
    "x-xss-protection": "1; mode=block",
    "x-served-by": "cache-fty21357-FTY",
    "x-github-request-id": "7874:0A89:114400:14362E:5F906E96",
    "x-cache-hits": "0, 0",
    "etag": "W/\"10223e47566cb0fb77ff8a4d39ff57452b00c3eb599e4209b73657470724b35b\"",
    "accept-ranges": "bytes",
    "date": "Wed, 21 Oct 2020 17:23:34 GMT",
    "vary": "Authorization,Accept-Encoding"
  },
  "url": "https://raw.githubusercontent.com/lodash/lodash/4.17.15-es/zipObjectDeep.js"
}