{
  "headers": {
    "x-github-request-id": "1A7C:0AA8:136611:16C741:5F906E98",
    "accept-ranges": "bytes",
    "x-frame-options": "deny",
    "via": "1.1 varnish (Varnish/6.0),1.1 varnish",
    "date": "Wed, 21 Oct 2020 17:23:36 GMT",
    "x-cache-hits": "0, 0",
    "content-security-policy": "default-src 'none'; style-src 'unsafe-inline'; sandbox",
    "source-age": "0",
    "x-fastly-request-id": "37b67eb81c56e0390ffa3c12bd32d52ae02f1c61",
    "x-served-by": "cache-fty21328-FTY",
    "expires": "Wed, 21 Oct 2020 17:28:36 GMT",
    "content-type": "text/plain; charset=utf-8",
    "connection": "keep-alive",
    "cache-control": "max-age=300",
    "strict-transport-security": "max-age=31536000",
    "x-content-type-options": "nosniff",
    "x-xss-protection": "1; mode=block",
    "etag": "W/\"a387a37aaed1fde1b4318ccfe5c5ca7306657d6c7e2ba807a32ecb41a9242c49\"",
    "access-control-allow-origin": "*",
    "x-cache": "MISS, MISS",
    "x-timer": "S1603301016.127257,VS0,VE167",
    "vary": "Authorization,Accept-Encoding"
  },
  "url": "https://raw.githubusercontent.com/lodash/lodash/4.17.15-es/util.default.js"
}