{
  "headers": {
    "source-age": "0",
    "x-frame-options": "deny",
    "etag": "W/\"10b10d6a681e45ec45ae0a02a3bc0785b65d844cc259d500ad251a9430a281c4\"",
    "x-timer": "S1603301015.815350,VS0,VE117",
    "x-content-type-options": "nosniff",
    "x-xss-protection": "1; mode=block",
    "cache-control": "max-age=300",
    "expires": "Wed, 21 Oct 2020 17:28:34 GMT",
    "strict-transport-security": "max-age=31536000",
    "x-served-by": "cache-fty21352-FTY",
    "x-github-request-id": "15D2:0A74:2629A3:2BD78F:5F906E96",
    "access-control-allow-origin": "*",
    "accept-ranges": "bytes",
    "x-cache": "MISS, MISS",
    "x-fastly-request-id": "c9bca9d269323e9f9f67bf7b3222595fcbf85821",
    "vary": "Authorization,Accept-Encoding",
    "via": "1.1 varnish (Varnish/6.0),1.1 varnish",
    "connection": "keep-alive",
    "content-security-policy": "default-src 'none'; style-src 'unsafe-inline'; sandbox",
    "content-type": "text/plain; charset=utf-8",
    "date": "Wed, 21 Oct 2020 17:23:34 GMT",
    "x-cache-hits": "0, 0"
  },
  "url": "https://raw.githubusercontent.com/lodash/lodash/4.17.15-es/_deburrLetter.js"
}