{
  "headers": {
    "x-xss-protection": "1; mode=block",
    "connection": "keep-alive",
    "x-cache-hits": "0, 0",
    "vary": "Authorization,Accept-Encoding",
    "content-security-policy": "default-src 'none'; style-src 'unsafe-inline'; sandbox",
    "x-served-by": "cache-fty21349-FTY",
    "content-type": "text/plain; charset=utf-8",
    "accept-ranges": "bytes",
    "access-control-allow-origin": "*",
    "cache-control": "max-age=300",
    "x-github-request-id": "E638:0AC2:2DAE6E:348F91:5F906E97",
    "date": "Wed, 21 Oct 2020 17:23:35 GMT",
    "expires": "Wed, 21 Oct 2020 17:28:35 GMT",
    "via": "1.1 varnish (Varnish/6.0), 1.1 varnish",
    "strict-transport-security": "max-age=31536000",
    "x-cache": "MISS, MISS",
    "source-age": "0",
    "x-content-type-options": "nosniff",
    "x-frame-options": "deny",
    "x-fastly-request-id": "ac2ebb0c75a012114409c4141705a61fecfcfb6a",
    "etag": "W/\"dfbbfe0b058cf4ce87cdc0ce59c5febd22417289effc1f7b3777fa598f0b1577\"",
    "x-timer": "S1603301016.623564,VS0,VE125"
  },
  "url": "https://raw.githubusercontent.com/lodash/lodash/4.17.15-es/_createBind.js"
}