{
  "headers": {
    "access-control-allow-origin": "*",
    "content-type": "text/plain; charset=utf-8",
    "connection": "keep-alive",
    "accept-ranges": "bytes",
    "x-xss-protection": "1; mode=block",
    "expires": "Wed, 21 Oct 2020 17:28:36 GMT",
    "cache-control": "max-age=300",
    "x-cache-hits": "0, 0",
    "x-fastly-request-id": "c934abd5959411b76eec0a5737aa2e1d55952b5f",
    "x-timer": "S1603301016.893806,VS0,VE117",
    "via": "1.1 varnish (Varnish/6.0),1.1 varnish",
    "x-github-request-id": "40AC:0A8A:240A6D:29908D:5F906E97",
    "content-security-policy": "default-src 'none'; style-src 'unsafe-inline'; sandbox",
    "source-age": "0",
    "date": "Wed, 21 Oct 2020 17:23:36 GMT",
    "etag": "W/\"58d604104ddf58fd66d1e8f5d0125cc891fad7bfd5118faedf7df17d82b9590e\"",
    "x-frame-options": "deny",
    "x-served-by": "cache-fty21328-FTY",
    "strict-transport-security": "max-age=31536000",
    "x-cache": "MISS, MISS",
    "x-content-type-options": "nosniff",
    "vary": "Authorization,Accept-Encoding"
  },
  "url": "https://raw.githubusercontent.com/lodash/lodash/4.17.15-es/_baseGetAllKeys.js"
}