{
  "headers": {
    "via": "1.1 varnish (Varnish/6.0),1.1 varnish",
    "content-security-policy": "default-src 'none'; style-src 'unsafe-inline'; sandbox",
    "x-github-request-id": "ACD4:0AE6:276950:2D6D0F:5F906E96",
    "connection": "keep-alive",
    "accept-ranges": "bytes",
    "x-served-by": "cache-fty21344-FTY",
    "date": "Wed, 21 Oct 2020 17:23:35 GMT",
    "x-cache": "MISS, MISS",
    "x-content-type-options": "nosniff",
    "x-fastly-request-id": "63bb5c06c3f5a600276bcf868e9a319feb56002c",
    "vary": "Authorization,Accept-Encoding",
    "x-xss-protection": "1; mode=block",
    "cache-control": "max-age=300",
    "etag": "W/\"0d9dd85f07626d0e51631e3db0b1d2d0724a68a90fd0aefa52421bd4e9b804ca\"",
    "x-cache-hits": "0, 0",
    "strict-transport-security": "max-age=31536000",
    "x-frame-options": "deny",
    "expires": "Wed, 21 Oct 2020 17:28:35 GMT",
    "access-control-allow-origin": "*",
    "content-type": "text/plain; charset=utf-8",
    "source-age": "0",
    "x-timer": "S1603301015.190310,VS0,VE120"
  },
  "url": "https://raw.githubusercontent.com/lodash/lodash/4.17.15-es/_root.js"
}