{
  "headers": {
    "x-cache-hits": "0, 0",
    "x-content-type-options": "nosniff",
    "accept-ranges": "bytes",
    "source-age": "0",
    "content-security-policy": "default-src 'none'; style-src 'unsafe-inline'; sandbox",
    "etag": "W/\"9244757e457ccb859ff36c8a8cedfd4b5cecd3f5b7c06b3d1041720ee3938745\"",
    "x-frame-options": "deny",
    "x-served-by": "cache-fty21353-FTY",
    "connection": "keep-alive",
    "date": "Wed, 21 Oct 2020 17:23:35 GMT",
    "x-timer": "S1603301016.618145,VS0,VE142",
    "content-type": "text/plain; charset=utf-8",
    "cache-control": "max-age=300",
    "expires": "Wed, 21 Oct 2020 17:28:35 GMT",
    "x-fastly-request-id": "c99d3ba2531f70f5496edc587f96af89ceb0d4ed",
    "x-cache": "MISS, MISS",
    "vary": "Authorization,Accept-Encoding",
    "access-control-allow-origin": "*",
    "strict-transport-security": "max-age=31536000",
    "x-xss-protection": "1; mode=block",
    "via": "1.1 varnish (Varnish/6.0), 1.1 varnish",
    "x-github-request-id": "7874:0A89:11440B:143637:5F906E97"
  },
  "url": "https://raw.githubusercontent.com/lodash/lodash/4.17.15-es/collection.js"
}