{
  "headers": {
    "etag": "W/\"9c8aa4587bf6eef1dff9240e6f6881740f0515fd83e8b764cc9f7d2199d5ea9c\"",
    "x-github-request-id": "AD4A:0A89:114407:143630:5F906E96",
    "content-type": "text/plain; charset=utf-8",
    "date": "Wed, 21 Oct 2020 17:23:35 GMT",
    "access-control-allow-origin": "*",
    "x-frame-options": "deny",
    "x-xss-protection": "1; mode=block",
    "x-cache": "MISS, MISS",
    "x-fastly-request-id": "7f2127283667383dda7f385a3743743cdbd97358",
    "x-served-by": "cache-fty21361-FTY",
    "content-security-policy": "default-src 'none'; style-src 'unsafe-inline'; sandbox",
    "cache-control": "max-age=300",
    "connection": "keep-alive",
    "via": "1.1 varnish (Varnish/6.0), 1.1 varnish",
    "x-cache-hits": "0, 0",
    "x-timer": "S1603301015.293426,VS0,VE102",
    "source-age": "0",
    "expires": "Wed, 21 Oct 2020 17:28:35 GMT",
    "strict-transport-security": "max-age=31536000",
    "x-content-type-options": "nosniff",
    "vary": "Authorization,Accept-Encoding",
    "accept-ranges": "bytes"
  },
  "url": "https://raw.githubusercontent.com/lodash/lodash/4.17.15-es/_castSlice.js"
}