{
  "headers": {
    "connection": "keep-alive",
    "etag": "W/\"8be1c1ebcc92951239ef3a24d4876890cfadd8828d3406b737117f48c5ec5308\"",
    "x-served-by": "cache-fty21322-FTY",
    "vary": "Authorization,Accept-Encoding",
    "content-security-policy": "default-src 'none'; style-src 'unsafe-inline'; sandbox",
    "x-cache": "MISS, MISS",
    "accept-ranges": "bytes",
    "access-control-allow-origin": "*",
    "cache-control": "max-age=300",
    "x-frame-options": "deny",
    "strict-transport-security": "max-age=31536000",
    "date": "Wed, 21 Oct 2020 17:23:35 GMT",
    "x-fastly-request-id": "36114ae47ccc7e1de4fbf66354dcfe2184c10371",
    "x-xss-protection": "1; mode=block",
    "x-github-request-id": "A512:0AE6:276959:2D6D22:5F906E97",
    "content-type": "text/plain; charset=utf-8",
    "x-cache-hits": "0, 0",
    "x-timer": "S1603301016.618947,VS0,VE120",
    "x-content-type-options": "nosniff",
    "expires": "Wed, 21 Oct 2020 17:28:35 GMT",
    "source-age": "0",
    "via": "1.1 varnish (Varnish/6.0),1.1 varnish"
  },
  "url": "https://raw.githubusercontent.com/lodash/lodash/4.17.15-es/_lazyValue.js"
}