{
  "headers": {
    "content-type": "text/plain; charset=utf-8",
    "connection": "keep-alive",
    "x-served-by": "cache-fty21329-FTY",
    "x-timer": "S1603301016.447014,VS0,VE131",
    "strict-transport-security": "max-age=31536000",
    "source-age": "0",
    "expires": "Wed, 21 Oct 2020 17:28:36 GMT",
    "x-fastly-request-id": "8abaef5a26f5e907f319d64c4ba2a735d1b6f616",
    "access-control-allow-origin": "*",
    "x-frame-options": "deny",
    "via": "1.1 varnish (Varnish/6.0),1.1 varnish",
    "content-security-policy": "default-src 'none'; style-src 'unsafe-inline'; sandbox",
    "etag": "W/\"c23599137bb87594fffe287ef64a0b85a3e2fdcad0507e660a029c728a906287\"",
    "x-content-type-options": "nosniff",
    "x-github-request-id": "D4BA:1D28:16432E:1A0B70:5F906E98",
    "date": "Wed, 21 Oct 2020 17:23:36 GMT",
    "x-xss-protection": "1; mode=block",
    "x-cache-hits": "0, 0",
    "cache-control": "max-age=300",
    "accept-ranges": "bytes",
    "x-cache": "MISS, MISS",
    "vary": "Authorization,Accept-Encoding"
  },
  "url": "https://raw.githubusercontent.com/lodash/lodash/4.17.15-es/_listCacheGet.js"
}