{
  "headers": {
    "via": "1.1 varnish (Varnish/6.0),1.1 varnish",
    "access-control-allow-origin": "*",
    "vary": "Authorization,Accept-Encoding",
    "x-fastly-request-id": "82aa2f93194d63a278e254396669b3e6bb362aa9",
    "cache-control": "max-age=300",
    "content-security-policy": "default-src 'none'; style-src 'unsafe-inline'; sandbox",
    "x-github-request-id": "8FB8:107D:2EB95D:3609AB:5F906E97",
    "accept-ranges": "bytes",
    "x-cache-hits": "0, 0",
    "date": "Wed, 21 Oct 2020 17:23:35 GMT",
    "x-timer": "S1603301016.616557,VS0,VE148",
    "etag": "W/\"2afc3d60c130d47cf7b328a864e2fe056866467ce0a8203ae73f454291990bc5\"",
    "content-type": "text/plain; charset=utf-8",
    "x-content-type-options": "nosniff",
    "x-served-by": "cache-fty21360-FTY",
    "source-age": "0",
    "strict-transport-security": "max-age=31536000",
    "expires": "Wed, 21 Oct 2020 17:28:35 GMT",
    "x-frame-options": "deny",
    "x-xss-protection": "1; mode=block",
    "x-cache": "MISS, MISS",
    "connection": "keep-alive"
  },
  "url": "https://raw.githubusercontent.com/lodash/lodash/4.17.15-es/_setData.js"
}