{
  "headers": {
    "connection": "keep-alive",
    "vary": "Authorization,Accept-Encoding",
    "content-security-policy": "default-src 'none'; style-src 'unsafe-inline'; sandbox",
    "x-timer": "S1603301014.385805,VS0,VE110",
    "x-cache": "MISS, MISS",
    "accept-ranges": "bytes",
    "date": "Wed, 21 Oct 2020 17:23:34 GMT",
    "x-github-request-id": "E0EA:0AA7:24F17A:2A7E06:5F906E96",
    "via": "1.1 varnish (Varnish/6.0),1.1 varnish",
    "x-cache-hits": "0, 0",
    "access-control-allow-origin": "*",
    "cache-control": "max-age=300",
    "source-age": "0",
    "x-served-by": "cache-fty21323-FTY",
    "x-content-type-options": "nosniff",
    "x-fastly-request-id": "a2fa8595cbfdcc51cb48414b6737449e3da3c320",
    "expires": "Wed, 21 Oct 2020 17:28:34 GMT",
    "x-frame-options": "deny",
    "content-type": "text/plain; charset=utf-8",
    "strict-transport-security": "max-age=31536000",
    "etag": "W/\"aec93085061e4fed90e8c29e4a9c65355152aa842b49077c2190a358ad80c719\"",
    "x-xss-protection": "1; mode=block"
  },
  "url": "https://raw.githubusercontent.com/lodash/lodash/4.17.15-es/noop.js"
}