{
  "headers": {
    "connection": "keep-alive",
    "source-age": "0",
    "expires": "Wed, 21 Oct 2020 17:28:34 GMT",
    "etag": "W/\"f21866ffd3b47733eef87a2f7c0ee2490f19a9655de0d6564ab18c4171f9ce0f\"",
    "x-cache": "MISS, MISS",
    "x-served-by": "cache-fty21383-FTY",
    "accept-ranges": "bytes",
    "vary": "Authorization,Accept-Encoding",
    "content-security-policy": "default-src 'none'; style-src 'unsafe-inline'; sandbox",
    "content-type": "text/plain; charset=utf-8",
    "x-content-type-options": "nosniff",
    "date": "Wed, 21 Oct 2020 17:23:34 GMT",
    "x-timer": "S1603301014.426210,VS0,VE118",
    "x-fastly-request-id": "677eb83b33f2e24ef6e2b4183ab388d897f9dbd2",
    "via": "1.1 varnish (Varnish/6.0),1.1 varnish",
    "x-github-request-id": "84F0:0AA7:24F17E:2A7E13:5F906E96",
    "x-frame-options": "deny",
    "x-cache-hits": "0, 0",
    "cache-control": "max-age=300",
    "strict-transport-security": "max-age=31536000",
    "access-control-allow-origin": "*",
    "x-xss-protection": "1; mode=block"
  },
  "url": "https://raw.githubusercontent.com/lodash/lodash/4.17.15-es/overEvery.js"
}