{
  "headers": {
    "x-served-by": "cache-fty21378-FTY",
    "content-type": "text/plain; charset=utf-8",
    "vary": "Authorization,Accept-Encoding",
    "x-fastly-request-id": "4e643df42792b70e4c032dd4dcda85327ed0c16c",
    "date": "Wed, 21 Oct 2020 17:23:35 GMT",
    "content-security-policy": "default-src 'none'; style-src 'unsafe-inline'; sandbox",
    "x-xss-protection": "1; mode=block",
    "x-timer": "S1603301016.624898,VS0,VE133",
    "x-cache": "MISS, MISS",
    "x-content-type-options": "nosniff",
    "connection": "keep-alive",
    "via": "1.1 varnish (Varnish/6.0),1.1 varnish",
    "cache-control": "max-age=300",
    "x-cache-hits": "0, 0",
    "access-control-allow-origin": "*",
    "x-frame-options": "deny",
    "x-github-request-id": "93DC:66AC:3D78E:4EDBE:5F906E96",
    "accept-ranges": "bytes",
    "source-age": "0",
    "strict-transport-security": "max-age=31536000",
    "etag": "W/\"b26d74fff864bf7340ff21146852e056bf809d365eed400e2ff767443b2c60fa\"",
    "expires": "Wed, 21 Oct 2020 17:28:35 GMT"
  },
  "url": "https://raw.githubusercontent.com/lodash/lodash/4.17.15-es/_baseToNumber.js"
}