{
  "headers": {
    "x-frame-options": "deny",
    "content-type": "text/plain; charset=utf-8",
    "x-cache": "MISS, MISS",
    "vary": "Authorization,Accept-Encoding",
    "connection": "keep-alive",
    "source-age": "0",
    "x-timer": "S1603301014.485563,VS0,VE175",
    "x-content-type-options": "nosniff",
    "strict-transport-security": "max-age=31536000",
    "x-fastly-request-id": "9d5b36db42aa85cdefccdba7697818c6280924d8",
    "x-xss-protection": "1; mode=block",
    "via": "1.1 varnish (Varnish/6.0),1.1 varnish",
    "x-served-by": "cache-fty21360-FTY",
    "content-security-policy": "default-src 'none'; style-src 'unsafe-inline'; sandbox",
    "etag": "W/\"bcd07ec94b718afd6f513e5c6a157f8297742467617017e00135b72c4f0c0be2\"",
    "date": "Wed, 21 Oct 2020 17:23:34 GMT",
    "expires": "Wed, 21 Oct 2020 17:28:34 GMT",
    "x-cache-hits": "0, 0",
    "cache-control": "max-age=300",
    "x-github-request-id": "9332:0A74:262993:2BD781:5F906E96",
    "accept-ranges": "bytes",
    "access-control-allow-origin": "*"
  },
  "url": "https://raw.githubusercontent.com/lodash/lodash/4.17.15-es/template.js"
}