{
  "headers": {
    "x-fastly-request-id": "7b3ae26635cf4bb24de0704f53bd3f5bd2637f52",
    "cache-control": "max-age=300",
    "x-github-request-id": "A382:0A63:2ECD45:360A37:5F906E86",
    "content-type": "text/plain; charset=utf-8",
    "accept-ranges": "bytes",
    "x-cache-hits": "0, 0",
    "x-served-by": "cache-fty21379-FTY",
    "x-xss-protection": "1; mode=block",
    "x-cache": "MISS, MISS",
    "x-content-type-options": "nosniff",
    "vary": "Authorization,Accept-Encoding",
    "via": "1.1 varnish (Varnish/6.0),1.1 varnish",
    "content-security-policy": "default-src 'none'; style-src 'unsafe-inline'; sandbox",
    "x-frame-options": "deny",
    "strict-transport-security": "max-age=31536000",
    "connection": "keep-alive",
    "expires": "Wed, 21 Oct 2020 17:28:36 GMT",
    "etag": "W/\"5761045c80ae2c2229e6ff44583aeaf6d93107ae160914ed849bdf54430acf67\"",
    "source-age": "0",
    "x-timer": "S1603301016.126678,VS0,VE126",
    "access-control-allow-origin": "*",
    "date": "Wed, 21 Oct 2020 17:23:36 GMT"
  },
  "url": "https://raw.githubusercontent.com/lodash/lodash/4.17.15-es/number.default.js"
}