{
  "headers": {
    "date": "Wed, 21 Oct 2020 17:23:34 GMT",
    "etag": "W/\"e83358f8defe22ff8e9ef6fca210c2c4530049288a10bb194e8c67e322a3d9cc\"",
    "x-cache": "MISS, MISS",
    "vary": "Authorization,Accept-Encoding",
    "x-frame-options": "deny",
    "x-timer": "S1603301014.251996,VS0,VE162",
    "via": "1.1 varnish (Varnish/6.0),1.1 varnish",
    "cache-control": "max-age=300",
    "accept-ranges": "bytes",
    "x-cache-hits": "0, 0",
    "access-control-allow-origin": "*",
    "x-github-request-id": "84F0:0AA7:24F175:2A7D43:5F906E90",
    "x-xss-protection": "1; mode=block",
    "x-fastly-request-id": "b0032beab1c5262d02bb34f336d9002954f4d0f8",
    "expires": "Wed, 21 Oct 2020 17:28:34 GMT",
    "connection": "keep-alive",
    "content-type": "text/plain; charset=utf-8",
    "strict-transport-security": "max-age=31536000",
    "content-security-policy": "default-src 'none'; style-src 'unsafe-inline'; sandbox",
    "x-content-type-options": "nosniff",
    "source-age": "0",
    "x-served-by": "cache-fty21343-FTY"
  },
  "url": "https://raw.githubusercontent.com/lodash/lodash/4.17.15-es/isWeakSet.js"
}