{
  "headers": {
    "x-timer": "S1603301015.291978,VS0,VE96",
    "etag": "W/\"65fe1b65009a744920eac8e6ddbfce409b8138f673f9d9e5d200f2e1a13ab1de\"",
    "accept-ranges": "bytes",
    "access-control-allow-origin": "*",
    "vary": "Authorization,Accept-Encoding",
    "cache-control": "max-age=300",
    "source-age": "0",
    "x-cache-hits": "0, 0",
    "x-fastly-request-id": "400dc7096d014c697c991f96bc254614ec9cd528",
    "via": "1.1 varnish (Varnish/6.0),1.1 varnish",
    "x-frame-options": "deny",
    "x-cache": "MISS, MISS",
    "content-security-policy": "default-src 'none'; style-src 'unsafe-inline'; sandbox",
    "x-xss-protection": "1; mode=block",
    "strict-transport-security": "max-age=31536000",
    "x-content-type-options": "nosniff",
    "expires": "Wed, 21 Oct 2020 17:28:35 GMT",
    "date": "Wed, 21 Oct 2020 17:23:35 GMT",
    "content-type": "text/plain; charset=utf-8",
    "connection": "keep-alive",
    "x-github-request-id": "5B36:0ABB:2DC224:34D925:5F906E96",
    "x-served-by": "cache-fty21324-FTY"
  },
  "url": "https://raw.githubusercontent.com/lodash/lodash/4.17.15-es/_baseMap.js"
}