{
  "headers": {
    "strict-transport-security": "max-age=31536000",
    "content-type": "text/plain; charset=utf-8",
    "etag": "W/\"1647f2f66b44aaeb2fd4aa9abf42d5c9eb43199073c01b27833c56bae95de75a\"",
    "x-served-by": "cache-fty21370-FTY",
    "x-cache": "MISS, MISS",
    "access-control-allow-origin": "*",
    "x-fastly-request-id": "32a15007f0e9fae07cc6ed5d6a9a3ffa047c5dd9",
    "accept-ranges": "bytes",
    "content-security-policy": "default-src 'none'; style-src 'unsafe-inline'; sandbox",
    "via": "1.1 varnish (Varnish/6.0),1.1 varnish",
    "connection": "keep-alive",
    "expires": "Wed, 21 Oct 2020 17:28:35 GMT",
    "date": "Wed, 21 Oct 2020 17:23:35 GMT",
    "x-timer": "S1603301015.291014,VS0,VE110",
    "cache-control": "max-age=300",
    "x-github-request-id": "1CFE:0AC2:2DAE65:348F7D:5F906E97",
    "x-cache-hits": "0, 0",
    "x-content-type-options": "nosniff",
    "vary": "Authorization,Accept-Encoding",
    "x-xss-protection": "1; mode=block",
    "source-age": "0",
    "x-frame-options": "deny"
  },
  "url": "https://raw.githubusercontent.com/lodash/lodash/4.17.15-es/_baseIsNaN.js"
}