{
  "headers": {
    "content-type": "text/plain; charset=utf-8",
    "cache-control": "max-age=300",
    "connection": "keep-alive",
    "x-content-type-options": "nosniff",
    "strict-transport-security": "max-age=31536000",
    "x-timer": "S1603301014.442640,VS0,VE199",
    "x-xss-protection": "1; mode=block",
    "content-security-policy": "default-src 'none'; style-src 'unsafe-inline'; sandbox",
    "vary": "Authorization,Accept-Encoding",
    "x-github-request-id": "5AA4:0ABB:2DC20A:34D90E:5F906E96",
    "accept-ranges": "bytes",
    "x-frame-options": "deny",
    "via": "1.1 varnish (Varnish/6.0), 1.1 varnish",
    "x-fastly-request-id": "b1a664022c027056f76765722ee87253b858fba9",
    "date": "Wed, 21 Oct 2020 17:23:34 GMT",
    "x-served-by": "cache-fty21365-FTY",
    "source-age": "0",
    "x-cache-hits": "0, 0",
    "x-cache": "MISS, MISS",
    "access-control-allow-origin": "*",
    "etag": "W/\"51e3f44340558fbb164b115e43dfdab57f530b005675a7a11300cbf404df439c\"",
    "expires": "Wed, 21 Oct 2020 17:28:34 GMT"
  },
  "url": "https://raw.githubusercontent.com/lodash/lodash/4.17.15-es/setWith.js"
}