{
  "headers": {
    "accept-ranges": "bytes",
    "content-security-policy": "default-src 'none'; style-src 'unsafe-inline'; sandbox",
    "connection": "keep-alive",
    "x-served-by": "cache-fty21383-FTY",
    "x-content-type-options": "nosniff",
    "vary": "Authorization,Accept-Encoding",
    "expires": "Wed, 21 Oct 2020 17:28:34 GMT",
    "strict-transport-security": "max-age=31536000",
    "date": "Wed, 21 Oct 2020 17:23:34 GMT",
    "access-control-allow-origin": "*",
    "x-cache-hits": "0, 0",
    "etag": "W/\"6ff3f3483b848db4f5c0839085bd826002af4cb6893b015cc02ddfd8cf3c94d8\"",
    "x-cache": "MISS, MISS",
    "x-timer": "S1603301015.820758,VS0,VE108",
    "x-fastly-request-id": "b0af4d4d7ce536797bb4086a4fdab1d2901a96a5",
    "x-github-request-id": "44B2:0A8D:970AE:B48AA:5F906E96",
    "cache-control": "max-age=300",
    "content-type": "text/plain; charset=utf-8",
    "via": "1.1 varnish (Varnish/6.0),1.1 varnish",
    "x-xss-protection": "1; mode=block",
    "source-age": "0",
    "x-frame-options": "deny"
  },
  "url": "https://raw.githubusercontent.com/lodash/lodash/4.17.15-es/_apply.js"
}