{
  "headers": {
    "access-control-allow-origin": "*",
    "x-cache": "MISS, MISS",
    "expires": "Wed, 21 Oct 2020 17:28:34 GMT",
    "x-content-type-options": "nosniff",
    "accept-ranges": "bytes",
    "date": "Wed, 21 Oct 2020 17:23:34 GMT",
    "connection": "keep-alive",
    "strict-transport-security": "max-age=31536000",
    "x-github-request-id": "53F0:0AA7:24F175:2A7CE3:5F906E8E",
    "content-security-policy": "default-src 'none'; style-src 'unsafe-inline'; sandbox",
    "x-cache-hits": "0, 0",
    "x-frame-options": "deny",
    "vary": "Authorization,Accept-Encoding",
    "x-fastly-request-id": "d5611adbe054372f84ca9b038ded610adb570b72",
    "source-age": "0",
    "cache-control": "max-age=300",
    "x-xss-protection": "1; mode=block",
    "etag": "W/\"1f9fbbdda59ff6e913b869b83548897773a8d330dc58730b412a33d11663e45a\"",
    "x-timer": "S1603301014.240566,VS0,VE212",
    "x-served-by": "cache-fty21347-FTY",
    "via": "1.1 varnish (Varnish/6.0),1.1 varnish",
    "content-type": "text/plain; charset=utf-8"
  },
  "url": "https://raw.githubusercontent.com/lodash/lodash/4.17.15-es/lowerFirst.js"
}