{
  "headers": {
    "accept-ranges": "bytes",
    "x-cache-hits": "0, 0",
    "expires": "Wed, 21 Oct 2020 17:28:34 GMT",
    "x-content-type-options": "nosniff",
    "x-xss-protection": "1; mode=block",
    "x-served-by": "cache-fty21332-FTY",
    "source-age": "0",
    "x-frame-options": "deny",
    "content-security-policy": "default-src 'none'; style-src 'unsafe-inline'; sandbox",
    "connection": "keep-alive",
    "cache-control": "max-age=300",
    "strict-transport-security": "max-age=31536000",
    "access-control-allow-origin": "*",
    "x-fastly-request-id": "26571335279f92906e8210c1688e81a3759a53ee",
    "date": "Wed, 21 Oct 2020 17:23:34 GMT",
    "vary": "Authorization,Accept-Encoding",
    "content-type": "text/plain; charset=utf-8",
    "via": "1.1 varnish (Varnish/6.0),1.1 varnish",
    "x-github-request-id": "138E:0A88:7C714:952C3:5F906E96",
    "x-cache": "MISS, MISS",
    "x-timer": "S1603301014.437065,VS0,VE277",
    "etag": "W/\"7d196d115117ebe8562d7cd253dd91915ce8f022fc5cc198894bd1d60ec88c9e\""
  },
  "url": "https://raw.githubusercontent.com/lodash/lodash/4.17.15-es/rearg.js"
}