{
  "headers": {
    "cache-control": "max-age=300",
    "x-served-by": "cache-fty21348-FTY",
    "expires": "Wed, 21 Oct 2020 17:28:36 GMT",
    "date": "Wed, 21 Oct 2020 17:23:36 GMT",
    "x-timer": "S1603301016.115685,VS0,VE122",
    "via": "1.1 varnish (Varnish/6.0),1.1 varnish",
    "content-type": "text/plain; charset=utf-8",
    "content-security-policy": "default-src 'none'; style-src 'unsafe-inline'; sandbox",
    "strict-transport-security": "max-age=31536000",
    "accept-ranges": "bytes",
    "vary": "Authorization,Accept-Encoding",
    "etag": "W/\"c956cc4789eb50b8ebcb6e263582a5ae2c0bb9849f7decd5e985d732c91e809b\"",
    "x-xss-protection": "1; mode=block",
    "x-content-type-options": "nosniff",
    "source-age": "0",
    "x-cache": "MISS, MISS",
    "access-control-allow-origin": "*",
    "x-frame-options": "deny",
    "connection": "keep-alive",
    "x-cache-hits": "0, 0",
    "x-github-request-id": "23C0:0AD5:2318A7:2873A2:5F906E97",
    "x-fastly-request-id": "e1da54b9b063dee3cc4cf0f04b45fd2c31b01cc3"
  },
  "url": "https://raw.githubusercontent.com/lodash/lodash/4.17.15-es/_mapCacheHas.js"
}