{
  "headers": {
    "x-xss-protection": "1; mode=block",
    "x-github-request-id": "CE04:107C:16F417:1AC96F:5F906E96",
    "connection": "keep-alive",
    "expires": "Wed, 21 Oct 2020 17:28:34 GMT",
    "content-security-policy": "default-src 'none'; style-src 'unsafe-inline'; sandbox",
    "x-timer": "S1603301014.422088,VS0,VE153",
    "x-cache": "MISS, MISS",
    "x-fastly-request-id": "67c451e3e81723110f9a1d866bd4756c5fcb1547",
    "x-cache-hits": "0, 0",
    "x-frame-options": "deny",
    "accept-ranges": "bytes",
    "x-content-type-options": "nosniff",
    "x-served-by": "cache-fty21357-FTY",
    "vary": "Authorization,Accept-Encoding",
    "etag": "W/\"f7e16a659af7bc9c8921605974659f63084908c7554d93151c8a3182ca0d2bd8\"",
    "content-type": "text/plain; charset=utf-8",
    "strict-transport-security": "max-age=31536000",
    "source-age": "0",
    "cache-control": "max-age=300",
    "via": "1.1 varnish (Varnish/6.0), 1.1 varnish",
    "access-control-allow-origin": "*",
    "date": "Wed, 21 Oct 2020 17:23:34 GMT"
  },
  "url": "https://raw.githubusercontent.com/lodash/lodash/4.17.15-es/isArrayLikeObject.js"
}