{
  "headers": {
    "x-timer": "S1603301014.449468,VS0,VE258",
    "x-frame-options": "deny",
    "x-served-by": "cache-fty21380-FTY",
    "accept-ranges": "bytes",
    "vary": "Authorization,Accept-Encoding",
    "access-control-allow-origin": "*",
    "x-fastly-request-id": "4b061196fe074352ace2bfdb5bf8afc4e87b6993",
    "x-cache": "MISS, MISS",
    "source-age": "0",
    "via": "1.1 varnish (Varnish/6.0),1.1 varnish",
    "x-cache-hits": "0, 0",
    "strict-transport-security": "max-age=31536000",
    "etag": "W/\"4a0073c6753fbda0fce05b512ddd97f4fa674f2e17f5fe2d7159445371dfd568\"",
    "x-content-type-options": "nosniff",
    "date": "Wed, 21 Oct 2020 17:23:34 GMT",
    "connection": "keep-alive",
    "content-type": "text/plain; charset=utf-8",
    "x-xss-protection": "1; mode=block",
    "expires": "Wed, 21 Oct 2020 17:28:34 GMT",
    "x-github-request-id": "C99A:0A8E:150C9D:189C24:5F906E96",
    "content-security-policy": "default-src 'none'; style-src 'unsafe-inline'; sandbox",
    "cache-control": "max-age=300"
  },
  "url": "https://raw.githubusercontent.com/lodash/lodash/4.17.15-es/unzipWith.js"
}