{
  "headers": {
    "x-fastly-request-id": "ea79f44fbf05a337f970853bc4fcc9e07e667066",
    "x-timer": "S1603301015.290688,VS0,VE100",
    "source-age": "0",
    "vary": "Authorization,Accept-Encoding",
    "date": "Wed, 21 Oct 2020 17:23:35 GMT",
    "x-served-by": "cache-fty21331-FTY",
    "etag": "W/\"7af87a1f4baaf72dffdb242d172cbe4aeec7dd886b4567c10526ce3694224d0c\"",
    "x-frame-options": "deny",
    "expires": "Wed, 21 Oct 2020 17:28:35 GMT",
    "strict-transport-security": "max-age=31536000",
    "x-xss-protection": "1; mode=block",
    "x-github-request-id": "51A0:25CC:31A000:39264D:5F906E96",
    "connection": "keep-alive",
    "cache-control": "max-age=300",
    "content-type": "text/plain; charset=utf-8",
    "x-cache-hits": "0, 0",
    "accept-ranges": "bytes",
    "via": "1.1 varnish (Varnish/6.0),1.1 varnish",
    "content-security-policy": "default-src 'none'; style-src 'unsafe-inline'; sandbox",
    "x-content-type-options": "nosniff",
    "x-cache": "MISS, MISS",
    "access-control-allow-origin": "*"
  },
  "url": "https://raw.githubusercontent.com/lodash/lodash/4.17.15-es/_baseMerge.js"
}