{
  "headers": {
    "cache-control": "max-age=300",
    "date": "Wed, 21 Oct 2020 17:23:34 GMT",
    "x-frame-options": "deny",
    "via": "1.1 varnish (Varnish/6.0),1.1 varnish",
    "content-security-policy": "default-src 'none'; style-src 'unsafe-inline'; sandbox",
    "x-cache": "MISS, MISS",
    "x-cache-hits": "0, 0",
    "content-type": "text/plain; charset=utf-8",
    "expires": "Wed, 21 Oct 2020 17:28:34 GMT",
    "source-age": "0",
    "accept-ranges": "bytes",
    "x-served-by": "cache-fty21336-FTY",
    "x-content-type-options": "nosniff",
    "etag": "W/\"1c33ecf54f74146b40af86cef817e1e649bd5a205dc88276cadf48f7b47d8f3e\"",
    "x-github-request-id": "328C:0AB7:1101D0:13D832:5F906E96",
    "strict-transport-security": "max-age=31536000",
    "connection": "keep-alive",
    "x-xss-protection": "1; mode=block",
    "x-timer": "S1603301015.820479,VS0,VE130",
    "vary": "Authorization,Accept-Encoding",
    "access-control-allow-origin": "*",
    "x-fastly-request-id": "6e885f9757dfeb15f17045463ac7f708ed8a6a31"
  },
  "url": "https://raw.githubusercontent.com/lodash/lodash/4.17.15-es/_replaceHolders.js"
}