{
  "headers": {
    "x-github-request-id": "C63E:0AC2:2DAE53:348F70:5F906E96",
    "x-xss-protection": "1; mode=block",
    "source-age": "0",
    "connection": "keep-alive",
    "x-cache": "MISS, MISS",
    "x-cache-hits": "0, 0",
    "content-security-policy": "default-src 'none'; style-src 'unsafe-inline'; sandbox",
    "expires": "Wed, 21 Oct 2020 17:28:34 GMT",
    "strict-transport-security": "max-age=31536000",
    "vary": "Authorization,Accept-Encoding",
    "access-control-allow-origin": "*",
    "accept-ranges": "bytes",
    "cache-control": "max-age=300",
    "etag": "W/\"9c7d23ec4c9894d778997d92a247fb0dd37612fb18c8d6ba4f24df9a0bdf14ea\"",
    "x-content-type-options": "nosniff",
    "date": "Wed, 21 Oct 2020 17:23:34 GMT",
    "content-type": "text/plain; charset=utf-8",
    "x-frame-options": "deny",
    "x-timer": "S1603301015.733440,VS0,VE121",
    "x-served-by": "cache-fty21361-FTY",
    "x-fastly-request-id": "e5d0b5b432110796f85ac43180acbf63427e7f58",
    "via": "1.1 varnish (Varnish/6.0), 1.1 varnish"
  },
  "url": "https://raw.githubusercontent.com/lodash/lodash/4.17.15-es/_toKey.js"
}