{
  "headers": {
    "connection": "keep-alive",
    "etag": "W/\"63b4c88d025fd14939b055a127c5a045b83a0e6cce420d96e8f1aac32fb0e3f7\"",
    "source-age": "0",
    "cache-control": "max-age=300",
    "x-content-type-options": "nosniff",
    "x-frame-options": "deny",
    "accept-ranges": "bytes",
    "x-cache": "MISS, MISS",
    "x-served-by": "cache-fty21341-FTY",
    "x-cache-hits": "0, 0",
    "x-github-request-id": "C4BA:0ACF:791B6:8FF22:5F906E97",
    "x-xss-protection": "1; mode=block",
    "date": "Wed, 21 Oct 2020 17:23:35 GMT",
    "expires": "Wed, 21 Oct 2020 17:28:35 GMT",
    "x-timer": "S1603301015.243458,VS0,VE172",
    "access-control-allow-origin": "*",
    "vary": "Authorization,Accept-Encoding",
    "via": "1.1 varnish (Varnish/6.0), 1.1 varnish",
    "strict-transport-security": "max-age=31536000",
    "x-fastly-request-id": "e15a2ba51da2133d61e75ae22e04b0cdce444884",
    "content-security-policy": "default-src 'none'; style-src 'unsafe-inline'; sandbox",
    "content-type": "text/plain; charset=utf-8"
  },
  "url": "https://raw.githubusercontent.com/lodash/lodash/4.17.15-es/_LazyWrapper.js"
}