{
  "headers": {
    "content-type": "text/plain; charset=utf-8",
    "x-cache": "MISS, MISS",
    "strict-transport-security": "max-age=31536000",
    "x-content-type-options": "nosniff",
    "x-fastly-request-id": "bc2babf9c8416e2502282d88f805c32933735ae4",
    "access-control-allow-origin": "*",
    "source-age": "0",
    "etag": "W/\"d56f922891378ddf8381afd381a37dcd3de739bc96359426ff3e7070f47a6f32\"",
    "x-served-by": "cache-fty21338-FTY",
    "connection": "keep-alive",
    "x-frame-options": "deny",
    "x-github-request-id": "CB28:68E2:2EF8F5:36411E:5F906E95",
    "via": "1.1 varnish (Varnish/6.0),1.1 varnish",
    "expires": "Wed, 21 Oct 2020 17:28:34 GMT",
    "cache-control": "max-age=300",
    "date": "Wed, 21 Oct 2020 17:23:34 GMT",
    "x-cache-hits": "0, 0",
    "x-timer": "S1603301014.116780,VS0,VE115",
    "vary": "Authorization,Accept-Encoding",
    "content-security-policy": "default-src 'none'; style-src 'unsafe-inline'; sandbox",
    "accept-ranges": "bytes",
    "x-xss-protection": "1; mode=block"
  },
  "url": "https://raw.githubusercontent.com/lodash/lodash/4.17.15-es/bindAll.js"
}