{
  "headers": {
    "x-cache": "MISS, MISS",
    "x-fastly-request-id": "ef119b6580100715f0ec76273e45f8e27f7a08b1",
    "x-timer": "S1603301016.182036,VS0,VE94",
    "vary": "Authorization,Accept-Encoding",
    "x-served-by": "cache-fty21350-FTY",
    "x-github-request-id": "3666:0AD0:233453:287B1F:5F906E97",
    "expires": "Wed, 21 Oct 2020 17:28:36 GMT",
    "x-frame-options": "deny",
    "accept-ranges": "bytes",
    "via": "1.1 varnish (Varnish/6.0),1.1 varnish",
    "content-type": "text/plain; charset=utf-8",
    "content-security-policy": "default-src 'none'; style-src 'unsafe-inline'; sandbox",
    "source-age": "0",
    "etag": "W/\"3ce40c1ab648b32825af1bca6b06699d60ec46533899eed310d0fdbb546abe84\"",
    "cache-control": "max-age=300",
    "x-xss-protection": "1; mode=block",
    "access-control-allow-origin": "*",
    "connection": "keep-alive",
    "date": "Wed, 21 Oct 2020 17:23:36 GMT",
    "strict-transport-security": "max-age=31536000",
    "x-cache-hits": "0, 0",
    "x-content-type-options": "nosniff"
  },
  "url": "https://raw.githubusercontent.com/lodash/lodash/4.17.15-es/_stackDelete.js"
}