{
  "headers": {
    "etag": "W/\"be4ba609097f0cee68c0e162aad0e8d20d22e59f72d3124a506c91c9afe23631\"",
    "x-timer": "S1603301014.395026,VS0,VE130",
    "source-age": "0",
    "via": "1.1 varnish (Varnish/6.0), 1.1 varnish",
    "expires": "Wed, 21 Oct 2020 17:28:34 GMT",
    "x-xss-protection": "1; mode=block",
    "vary": "Authorization,Accept-Encoding",
    "connection": "keep-alive",
    "content-type": "text/plain; charset=utf-8",
    "x-fastly-request-id": "3a79020684e8ae2195f3bdfee07d9c12916a0115",
    "x-github-request-id": "5CE0:0AE7:3791E:4704C:5F906E8B",
    "x-served-by": "cache-fty21345-FTY",
    "x-frame-options": "deny",
    "x-cache-hits": "0, 0",
    "accept-ranges": "bytes",
    "cache-control": "max-age=300",
    "x-cache": "MISS, MISS",
    "content-security-policy": "default-src 'none'; style-src 'unsafe-inline'; sandbox",
    "x-content-type-options": "nosniff",
    "access-control-allow-origin": "*",
    "strict-transport-security": "max-age=31536000",
    "date": "Wed, 21 Oct 2020 17:23:34 GMT"
  },
  "url": "https://raw.githubusercontent.com/lodash/lodash/4.17.15-es/truncate.js"
}