{
  "headers": {
    "x-frame-options": "deny",
    "etag": "W/\"f7616efcba62abfd951c3d263ce63d075740b4bcd05d4987d957f35ab7e92ea9\"",
    "x-content-type-options": "nosniff",
    "x-served-by": "cache-fty21327-FTY",
    "x-cache": "MISS, MISS",
    "cache-control": "max-age=300",
    "date": "Wed, 21 Oct 2020 17:23:36 GMT",
    "x-fastly-request-id": "f6a76ff1b7b439c182a81222473b625b2b4ddb15",
    "content-security-policy": "default-src 'none'; style-src 'unsafe-inline'; sandbox",
    "strict-transport-security": "max-age=31536000",
    "connection": "keep-alive",
    "x-xss-protection": "1; mode=block",
    "x-github-request-id": "AD4C:179E:16D907:1A9620:5F906E97",
    "x-timer": "S1603301016.128189,VS0,VE148",
    "source-age": "0",
    "vary": "Authorization,Accept-Encoding",
    "expires": "Wed, 21 Oct 2020 17:28:36 GMT",
    "content-type": "text/plain; charset=utf-8",
    "accept-ranges": "bytes",
    "via": "1.1 varnish (Varnish/6.0),1.1 varnish",
    "x-cache-hits": "0, 0",
    "access-control-allow-origin": "*"
  },
  "url": "https://raw.githubusercontent.com/lodash/lodash/4.17.15-es/seq.default.js"
}