{
  "headers": {
    "x-github-request-id": "C40C:1D28:16430F:1A0B00:5F906E84",
    "x-cache": "MISS, MISS",
    "connection": "keep-alive",
    "x-frame-options": "deny",
    "access-control-allow-origin": "*",
    "content-security-policy": "default-src 'none'; style-src 'unsafe-inline'; sandbox",
    "x-fastly-request-id": "a5131a48e97e363c6a83c77fe14792b921212eb3",
    "x-cache-hits": "0, 0",
    "date": "Wed, 21 Oct 2020 17:23:34 GMT",
    "source-age": "0",
    "expires": "Wed, 21 Oct 2020 17:28:34 GMT",
    "cache-control": "max-age=300",
    "content-type": "text/plain; charset=utf-8",
    "strict-transport-security": "max-age=31536000",
    "via": "1.1 varnish (Varnish/6.0),1.1 varnish",
    "etag": "W/\"884c8605ce32210604943a3b9618d6c04672d0dfc8920dbe8b63016258c75a4c\"",
    "accept-ranges": "bytes",
    "x-served-by": "cache-fty21359-FTY",
    "x-timer": "S1603301014.292677,VS0,VE180",
    "vary": "Authorization,Accept-Encoding",
    "x-content-type-options": "nosniff",
    "x-xss-protection": "1; mode=block"
  },
  "url": "https://raw.githubusercontent.com/lodash/lodash/4.17.15-es/head.js"
}