{
  "headers": {
    "x-xss-protection": "1; mode=block",
    "x-timer": "S1603301014.239591,VS0,VE227",
    "x-served-by": "cache-fty21321-FTY",
    "x-github-request-id": "5E4C:68E1:16B6D2:1A86EE:5F906E96",
    "x-cache": "MISS, MISS",
    "content-security-policy": "default-src 'none'; style-src 'unsafe-inline'; sandbox",
    "source-age": "0",
    "vary": "Authorization,Accept-Encoding",
    "etag": "W/\"6e5a85a758de9d7522118768e097bdf25e30348fde4090d4351a13dcda712b73\"",
    "accept-ranges": "bytes",
    "x-cache-hits": "0, 0",
    "x-content-type-options": "nosniff",
    "content-type": "text/plain; charset=utf-8",
    "strict-transport-security": "max-age=31536000",
    "via": "1.1 varnish (Varnish/6.0), 1.1 varnish",
    "expires": "Wed, 21 Oct 2020 17:28:34 GMT",
    "cache-control": "max-age=300",
    "connection": "keep-alive",
    "access-control-allow-origin": "*",
    "x-frame-options": "deny",
    "date": "Wed, 21 Oct 2020 17:23:34 GMT",
    "x-fastly-request-id": "d5272fe7427cbd0e9f8be798a8816dabf566051b"
  },
  "url": "https://raw.githubusercontent.com/lodash/lodash/4.17.15-es/last.js"
}