{
  "headers": {
    "expires": "Wed, 21 Oct 2020 17:28:34 GMT",
    "cache-control": "max-age=300",
    "x-content-type-options": "nosniff",
    "x-cache-hits": "0, 0",
    "access-control-allow-origin": "*",
    "connection": "keep-alive",
    "date": "Wed, 21 Oct 2020 17:23:34 GMT",
    "x-fastly-request-id": "081f0d562ead21ffb568885fa06e85cc7846958c",
    "content-type": "text/plain; charset=utf-8",
    "strict-transport-security": "max-age=31536000",
    "etag": "W/\"97126ed2c50ce5ce50f321ca429342f44548189c0d237690c22c5af8a6818e18\"",
    "accept-ranges": "bytes",
    "x-cache": "MISS, MISS",
    "x-github-request-id": "3616:0ABE:2792B2:2DA034:5F906E93",
    "content-security-policy": "default-src 'none'; style-src 'unsafe-inline'; sandbox",
    "x-xss-protection": "1; mode=block",
    "x-frame-options": "deny",
    "via": "1.1 varnish (Varnish/6.0), 1.1 varnish",
    "source-age": "0",
    "x-timer": "S1603301014.239959,VS0,VE190",
    "vary": "Authorization,Accept-Encoding",
    "x-served-by": "cache-fty21345-FTY"
  },
  "url": "https://raw.githubusercontent.com/lodash/lodash/4.17.15-es/isString.js"
}