{
  "headers": {
    "expires": "Wed, 21 Oct 2020 17:28:34 GMT",
    "strict-transport-security": "max-age=31536000",
    "content-type": "text/plain; charset=utf-8",
    "x-github-request-id": "575E:0AD5:231876:28736A:5F906E96",
    "connection": "keep-alive",
    "content-security-policy": "default-src 'none'; style-src 'unsafe-inline'; sandbox",
    "via": "1.1 varnish (Varnish/6.0),1.1 varnish",
    "accept-ranges": "bytes",
    "cache-control": "max-age=300",
    "x-frame-options": "deny",
    "source-age": "0",
    "date": "Wed, 21 Oct 2020 17:23:34 GMT",
    "x-cache-hits": "0, 0",
    "x-timer": "S1603301015.861217,VS0,VE106",
    "x-cache": "MISS, MISS",
    "access-control-allow-origin": "*",
    "x-content-type-options": "nosniff",
    "etag": "W/\"0008bb83a61b6ec8d111650278094704cb98062ba6959302c3a713a7feb12627\"",
    "x-xss-protection": "1; mode=block",
    "vary": "Authorization,Accept-Encoding",
    "x-served-by": "cache-fty21331-FTY",
    "x-fastly-request-id": "d11910d95951c93267cd1a74c4f9cbcbbb9c7108"
  },
  "url": "https://raw.githubusercontent.com/lodash/lodash/4.17.15-es/_createRelationalOperation.js"
}