{
  "headers": {
    "source-age": "0",
    "etag": "W/\"00af9c1917c11e2ba85aed33c8fa7f5b7c4f7bb93004815819f4967f67bf5633\"",
    "x-github-request-id": "B3B6:0AD0:2CAA39:339550:5F906E96",
    "x-served-by": "cache-fty21359-FTY",
    "via": "1.1 varnish (Varnish/6.0),1.1 varnish",
    "content-security-policy": "default-src 'none'; style-src 'unsafe-inline'; sandbox",
    "x-cache": "MISS, MISS",
    "connection": "keep-alive",
    "accept-ranges": "bytes",
    "cache-control": "max-age=300",
    "x-fastly-request-id": "00d5fdef35a8e6729c6373bdc4b65aea346e8ccb",
    "x-xss-protection": "1; mode=block",
    "vary": "Authorization,Accept-Encoding",
    "access-control-allow-origin": "*",
    "expires": "Wed, 21 Oct 2020 17:28:34 GMT",
    "content-type": "text/plain; charset=utf-8",
    "date": "Wed, 21 Oct 2020 17:23:34 GMT",
    "x-frame-options": "deny",
    "x-timer": "S1603301015.819804,VS0,VE105",
    "x-content-type-options": "nosniff",
    "x-cache-hits": "0, 0",
    "strict-transport-security": "max-age=31536000"
  },
  "url": "https://raw.githubusercontent.com/lodash/lodash/4.17.15-es/_LodashWrapper.js"
}