{
  "headers": {
    "date": "Wed, 21 Oct 2020 17:23:34 GMT",
    "x-served-by": "cache-fty21357-FTY",
    "x-timer": "S1603301014.176865,VS0,VE125",
    "accept-ranges": "bytes",
    "content-security-policy": "default-src 'none'; style-src 'unsafe-inline'; sandbox",
    "x-frame-options": "deny",
    "strict-transport-security": "max-age=31536000",
    "vary": "Authorization,Accept-Encoding",
    "via": "1.1 varnish (Varnish/6.0), 1.1 varnish",
    "x-fastly-request-id": "185bc03b841bf9ffe9bdd79957e96fac953b433b",
    "content-type": "text/plain; charset=utf-8",
    "expires": "Wed, 21 Oct 2020 17:28:34 GMT",
    "x-cache": "MISS, MISS",
    "x-cache-hits": "0, 0",
    "access-control-allow-origin": "*",
    "x-content-type-options": "nosniff",
    "cache-control": "max-age=300",
    "x-xss-protection": "1; mode=block",
    "source-age": "0",
    "x-github-request-id": "1FC8:0A63:2ECD16:360B6C:5F906E91",
    "etag": "W/\"fdf18041699c31175556afb50ae2890e109bd9972e85c28baeeeef58962487db\"",
    "connection": "keep-alive"
  },
  "url": "https://raw.githubusercontent.com/lodash/lodash/4.17.15-es/findLastKey.js"
}