{
  "headers": {
    "x-xss-protection": "1; mode=block",
    "connection": "keep-alive",
    "accept-ranges": "bytes",
    "vary": "Authorization,Accept-Encoding",
    "x-cache": "MISS, MISS",
    "access-control-allow-origin": "*",
    "x-timer": "S1603301015.309939,VS0,VE113",
    "content-security-policy": "default-src 'none'; style-src 'unsafe-inline'; sandbox",
    "etag": "W/\"4f061f8b4ec0a3a05682cb80706a017a42967a23b1489b0376d2cccc0ca07415\"",
    "expires": "Wed, 21 Oct 2020 17:28:35 GMT",
    "x-github-request-id": "A352:68E2:2EF911:36413E:5F906E96",
    "via": "1.1 varnish (Varnish/6.0),1.1 varnish",
    "source-age": "0",
    "x-fastly-request-id": "0d7a1595c951225fd891e5283ce5c55930a0f814",
    "x-content-type-options": "nosniff",
    "x-frame-options": "deny",
    "content-type": "text/plain; charset=utf-8",
    "date": "Wed, 21 Oct 2020 17:23:35 GMT",
    "strict-transport-security": "max-age=31536000",
    "x-cache-hits": "0, 0",
    "cache-control": "max-age=300",
    "x-served-by": "cache-fty21363-FTY"
  },
  "url": "https://raw.githubusercontent.com/lodash/lodash/4.17.15-es/_baseUniq.js"
}