{
  "headers": {
    "expires": "Wed, 21 Oct 2020 17:28:34 GMT",
    "etag": "W/\"c687e9fdc380dd868305a75edd40addfeb955512eae5590a7520cd29dd8bde9a\"",
    "content-type": "text/plain; charset=utf-8",
    "x-content-type-options": "nosniff",
    "date": "Wed, 21 Oct 2020 17:23:34 GMT",
    "x-github-request-id": "7FA8:0A73:8260:1067E:5F906E93",
    "x-cache-hits": "0, 0",
    "x-timer": "S1603301014.257237,VS0,VE189",
    "x-frame-options": "deny",
    "via": "1.1 varnish (Varnish/6.0),1.1 varnish",
    "access-control-allow-origin": "*",
    "strict-transport-security": "max-age=31536000",
    "accept-ranges": "bytes",
    "x-cache": "MISS, MISS",
    "x-fastly-request-id": "fc377f3be1668fa21cfe2e51d21ed7a3aacd62e6",
    "source-age": "0",
    "connection": "keep-alive",
    "x-served-by": "cache-fty21346-FTY",
    "vary": "Authorization,Accept-Encoding",
    "x-xss-protection": "1; mode=block",
    "content-security-policy": "default-src 'none'; style-src 'unsafe-inline'; sandbox",
    "cache-control": "max-age=300"
  },
  "url": "https://raw.githubusercontent.com/lodash/lodash/4.17.15-es/functions.js"
}