{
  "headers": {
    "etag": "W/\"fd09ef8d576939dc85129dd84884bd62df30d7bb052e55b80486a16f4382d807\"",
    "cache-control": "max-age=300",
    "x-served-by": "cache-fty21349-FTY",
    "x-github-request-id": "B3B6:0AD0:2CAA46:33955D:5F906E96",
    "x-cache": "MISS, MISS",
    "x-fastly-request-id": "8a5c59f13dd89271545cfbd20403d85ec7b49d5b",
    "x-xss-protection": "1; mode=block",
    "via": "1.1 varnish (Varnish/6.0), 1.1 varnish",
    "date": "Wed, 21 Oct 2020 17:23:35 GMT",
    "source-age": "0",
    "content-security-policy": "default-src 'none'; style-src 'unsafe-inline'; sandbox",
    "access-control-allow-origin": "*",
    "connection": "keep-alive",
    "expires": "Wed, 21 Oct 2020 17:28:35 GMT",
    "x-timer": "S1603301015.310668,VS0,VE136",
    "x-content-type-options": "nosniff",
    "strict-transport-security": "max-age=31536000",
    "accept-ranges": "bytes",
    "x-cache-hits": "0, 0",
    "vary": "Authorization,Accept-Encoding",
    "content-type": "text/plain; charset=utf-8",
    "x-frame-options": "deny"
  },
  "url": "https://raw.githubusercontent.com/lodash/lodash/4.17.15-es/_isIndex.js"
}