{
  "headers": {
    "expires": "Wed, 21 Oct 2020 17:28:34 GMT",
    "x-fastly-request-id": "fe5b77f219d33b036797b20ec567c1b57c6cfa4b",
    "x-cache": "MISS, MISS",
    "vary": "Authorization,Accept-Encoding",
    "content-type": "text/plain; charset=utf-8",
    "x-xss-protection": "1; mode=block",
    "etag": "W/\"7ff38794802d7cd37764d541d3a3f09f52ea9ada7beb337a0bf9d2f1f74bb3bf\"",
    "x-cache-hits": "0, 0",
    "content-security-policy": "default-src 'none'; style-src 'unsafe-inline'; sandbox",
    "access-control-allow-origin": "*",
    "via": "1.1 varnish (Varnish/6.0), 1.1 varnish",
    "x-content-type-options": "nosniff",
    "cache-control": "max-age=300",
    "strict-transport-security": "max-age=31536000",
    "connection": "keep-alive",
    "x-frame-options": "deny",
    "source-age": "0",
    "accept-ranges": "bytes",
    "date": "Wed, 21 Oct 2020 17:23:34 GMT",
    "x-timer": "S1603301014.163945,VS0,VE114",
    "x-served-by": "cache-fty21373-FTY",
    "x-github-request-id": "F38A:0A8A:240A31:29903B:5F906E95"
  },
  "url": "https://raw.githubusercontent.com/lodash/lodash/4.17.15-es/bindKey.js"
}