{
  "headers": {
    "x-xss-protection": "1; mode=block",
    "etag": "W/\"c8cad9aab42ddef564635d0695365012f5d07452419d37e2fc3d356a5d9c5968\"",
    "x-cache": "MISS, MISS",
    "expires": "Wed, 21 Oct 2020 17:28:34 GMT",
    "connection": "keep-alive",
    "date": "Wed, 21 Oct 2020 17:23:34 GMT",
    "x-served-by": "cache-fty21348-FTY",
    "x-cache-hits": "0, 0",
    "x-github-request-id": "4FFC:636A:2F31F4:368840:5F906E95",
    "x-frame-options": "deny",
    "x-timer": "S1603301014.222871,VS0,VE165",
    "cache-control": "max-age=300",
    "x-fastly-request-id": "d468a9b4a1d666f0fc9f4bbf72000472fbd4b6e8",
    "strict-transport-security": "max-age=31536000",
    "content-type": "text/plain; charset=utf-8",
    "access-control-allow-origin": "*",
    "content-security-policy": "default-src 'none'; style-src 'unsafe-inline'; sandbox",
    "x-content-type-options": "nosniff",
    "accept-ranges": "bytes",
    "vary": "Authorization,Accept-Encoding",
    "via": "1.1 varnish (Varnish/6.0),1.1 varnish",
    "source-age": "0"
  },
  "url": "https://raw.githubusercontent.com/lodash/lodash/4.17.15-es/identity.js"
}