{
  "headers": {
    "expires": "Wed, 21 Oct 2020 17:28:34 GMT",
    "strict-transport-security": "max-age=31536000",
    "via": "1.1 varnish (Varnish/6.0),1.1 varnish",
    "connection": "keep-alive",
    "source-age": "0",
    "content-security-policy": "default-src 'none'; style-src 'unsafe-inline'; sandbox",
    "x-github-request-id": "D478:0AAA:2B217F:31FE97:5F906E96",
    "accept-ranges": "bytes",
    "etag": "W/\"9a6a35de91b1ecee47dd8294a7fdff56dbadef1f4635287f097ca6a4f3f54026\"",
    "x-served-by": "cache-fty21347-FTY",
    "x-cache-hits": "0, 0",
    "x-content-type-options": "nosniff",
    "x-xss-protection": "1; mode=block",
    "x-timer": "S1603301014.454316,VS0,VE244",
    "access-control-allow-origin": "*",
    "x-cache": "MISS, MISS",
    "x-fastly-request-id": "acab3a200d0523e34894b50e2b3deacf94cd6685",
    "x-frame-options": "deny",
    "cache-control": "max-age=300",
    "date": "Wed, 21 Oct 2020 17:23:34 GMT",
    "vary": "Authorization,Accept-Encoding",
    "content-type": "text/plain; charset=utf-8"
  },
  "url": "https://raw.githubusercontent.com/lodash/lodash/4.17.15-es/shuffle.js"
}