{
  "headers": {
    "x-content-type-options": "nosniff",
    "source-age": "0",
    "accept-ranges": "bytes",
    "x-served-by": "cache-fty21357-FTY",
    "expires": "Wed, 21 Oct 2020 17:28:35 GMT",
    "x-cache-hits": "0, 0",
    "date": "Wed, 21 Oct 2020 17:23:35 GMT",
    "x-cache": "MISS, MISS",
    "connection": "keep-alive",
    "x-frame-options": "deny",
    "cache-control": "max-age=300",
    "x-timer": "S1603301015.288555,VS0,VE130",
    "strict-transport-security": "max-age=31536000",
    "vary": "Authorization,Accept-Encoding",
    "x-fastly-request-id": "ec2134baa28b7b29d070ffb33aeacd61ddb93e5e",
    "etag": "W/\"860f7d8bb6afb4dce9f54b749ddde33dfe77196689284bd14eaa70e664f26538\"",
    "access-control-allow-origin": "*",
    "content-type": "text/plain; charset=utf-8",
    "x-xss-protection": "1; mode=block",
    "x-github-request-id": "40AC:0A8A:240A5B:299073:5F906E96",
    "content-security-policy": "default-src 'none'; style-src 'unsafe-inline'; sandbox",
    "via": "1.1 varnish (Varnish/6.0), 1.1 varnish"
  },
  "url": "https://raw.githubusercontent.com/lodash/lodash/4.17.15-es/_baseTimes.js"
}