{
  "headers": {
    "x-content-type-options": "nosniff",
    "via": "1.1 varnish (Varnish/6.0),1.1 varnish",
    "access-control-allow-origin": "*",
    "x-fastly-request-id": "347c0331e1ffef0dcb9858e2761e4499b88c7730",
    "connection": "keep-alive",
    "x-xss-protection": "1; mode=block",
    "expires": "Wed, 21 Oct 2020 17:28:35 GMT",
    "date": "Wed, 21 Oct 2020 17:23:35 GMT",
    "x-frame-options": "deny",
    "etag": "W/\"8122c682f6d88cdf2c033306d458157db0066dcd64f101360a3f38f4f7c086ee\"",
    "source-age": "0",
    "accept-ranges": "bytes",
    "x-github-request-id": "78F6:0AA7:24F1BD:2A7E54:5F906E97",
    "strict-transport-security": "max-age=31536000",
    "cache-control": "max-age=300",
    "x-served-by": "cache-fty21327-FTY",
    "x-cache-hits": "0, 0",
    "vary": "Authorization,Accept-Encoding",
    "x-cache": "MISS, MISS",
    "x-timer": "S1603301016.855662,VS0,VE111",
    "content-type": "text/plain; charset=utf-8",
    "content-security-policy": "default-src 'none'; style-src 'unsafe-inline'; sandbox"
  },
  "url": "https://raw.githubusercontent.com/lodash/lodash/4.17.15-es/_baseIsEqualDeep.js"
}