{
  "headers": {
    "cache-control": "max-age=300",
    "access-control-allow-origin": "*",
    "content-security-policy": "default-src 'none'; style-src 'unsafe-inline'; sandbox",
    "x-frame-options": "deny",
    "via": "1.1 varnish (Varnish/6.0),1.1 varnish",
    "vary": "Authorization,Accept-Encoding",
    "etag": "W/\"f249bfb00f36835ce579899df6b63369936021809dc7975154a56882c7f8d981\"",
    "x-fastly-request-id": "e4db7da5ac376349d96bdf35c42954692975bcc0",
    "connection": "keep-alive",
    "x-cache-hits": "0, 0",
    "accept-ranges": "bytes",
    "content-type": "text/plain; charset=utf-8",
    "x-github-request-id": "7C20:1D27:940EE:B1D8D:5F906E96",
    "source-age": "0",
    "expires": "Wed, 21 Oct 2020 17:28:34 GMT",
    "x-content-type-options": "nosniff",
    "x-served-by": "cache-fty21329-FTY",
    "strict-transport-security": "max-age=31536000",
    "x-xss-protection": "1; mode=block",
    "date": "Wed, 21 Oct 2020 17:23:34 GMT",
    "x-cache": "MISS, MISS",
    "x-timer": "S1603301014.484563,VS0,VE251"
  },
  "url": "https://raw.githubusercontent.com/lodash/lodash/4.17.15-es/takeRightWhile.js"
}