{
  "headers": {
    "etag": "W/\"19fe43b00e4622d977f9b4ec9c39a00e2242bfce3914d821a9ed0cad5761f74d\"",
    "x-xss-protection": "1; mode=block",
    "cache-control": "max-age=300",
    "via": "1.1 varnish (Varnish/6.0),1.1 varnish",
    "connection": "keep-alive",
    "expires": "Wed, 21 Oct 2020 17:28:34 GMT",
    "accept-ranges": "bytes",
    "date": "Wed, 21 Oct 2020 17:23:34 GMT",
    "access-control-allow-origin": "*",
    "x-fastly-request-id": "6405a5fe1fc0e6049ec7a324af3647f43fc0e1f6",
    "source-age": "0",
    "x-content-type-options": "nosniff",
    "content-security-policy": "default-src 'none'; style-src 'unsafe-inline'; sandbox",
    "x-github-request-id": "5E70:0AB8:2A6C51:310B67:5F906E95",
    "x-frame-options": "deny",
    "x-served-by": "cache-fty21332-FTY",
    "x-cache": "MISS, MISS",
    "x-cache-hits": "0, 0",
    "x-timer": "S1603301014.218269,VS0,VE183",
    "vary": "Authorization,Accept-Encoding",
    "strict-transport-security": "max-age=31536000",
    "content-type": "text/plain; charset=utf-8"
  },
  "url": "https://raw.githubusercontent.com/lodash/lodash/4.17.15-es/findKey.js"
}