{
  "headers": {
    "source-age": "0",
    "x-content-type-options": "nosniff",
    "x-frame-options": "deny",
    "vary": "Authorization,Accept-Encoding",
    "x-cache-hits": "0, 0",
    "x-fastly-request-id": "5d39c4ffb82dcce1b213787d64b7c667e472ffb7",
    "x-served-by": "cache-fty21351-FTY",
    "x-github-request-id": "50DC:66AD:9E971:BDC34:5F906E96",
    "content-security-policy": "default-src 'none'; style-src 'unsafe-inline'; sandbox",
    "x-cache": "MISS, MISS",
    "access-control-allow-origin": "*",
    "x-xss-protection": "1; mode=block",
    "via": "1.1 varnish (Varnish/6.0),1.1 varnish",
    "etag": "W/\"4a0adf1b8b21ae5dbe12b022ae2ee242f960049b878c46586287bc99a494c033\"",
    "expires": "Wed, 21 Oct 2020 17:28:34 GMT",
    "accept-ranges": "bytes",
    "strict-transport-security": "max-age=31536000",
    "cache-control": "max-age=300",
    "x-timer": "S1603301014.241248,VS0,VE199",
    "connection": "keep-alive",
    "date": "Wed, 21 Oct 2020 17:23:34 GMT",
    "content-type": "text/plain; charset=utf-8"
  },
  "url": "https://raw.githubusercontent.com/lodash/lodash/4.17.15-es/iteratee.js"
}