{
  "headers": {
    "content-type": "text/plain; charset=utf-8",
    "access-control-allow-origin": "*",
    "x-content-type-options": "nosniff",
    "source-age": "0",
    "x-fastly-request-id": "6d69ad15af3b8a8a87d39871218fe646f5036dc6",
    "x-served-by": "cache-fty21321-FTY",
    "x-frame-options": "deny",
    "date": "Wed, 21 Oct 2020 17:23:35 GMT",
    "content-security-policy": "default-src 'none'; style-src 'unsafe-inline'; sandbox",
    "via": "1.1 varnish (Varnish/6.0), 1.1 varnish",
    "x-xss-protection": "1; mode=block",
    "x-cache-hits": "0, 0",
    "accept-ranges": "bytes",
    "expires": "Wed, 21 Oct 2020 17:28:35 GMT",
    "x-timer": "S1603301015.292476,VS0,VE111",
    "strict-transport-security": "max-age=31536000",
    "etag": "W/\"bf95be82b0a8d9dcf273019bdaf5e332d629d64d4081a78c719835748940954f\"",
    "x-github-request-id": "328C:0AB7:1101D7:13D839:5F906E96",
    "vary": "Authorization,Accept-Encoding",
    "cache-control": "max-age=300",
    "connection": "keep-alive",
    "x-cache": "MISS, MISS"
  },
  "url": "https://raw.githubusercontent.com/lodash/lodash/4.17.15-es/_baseMatches.js"
}