{
  "headers": {
    "access-control-allow-origin": "*",
    "content-security-policy": "default-src 'none'; style-src 'unsafe-inline'; sandbox",
    "x-content-type-options": "nosniff",
    "etag": "W/\"6b6b177f43ee79af5aaf622d281a12666488b6f416b69457d7ebd21d4cbf9f4a\"",
    "connection": "keep-alive",
    "vary": "Authorization,Accept-Encoding",
    "source-age": "0",
    "x-served-by": "cache-fty21334-FTY",
    "x-fastly-request-id": "8414bc7ab9f4f886cdf7fb49d2d18635fc150994",
    "x-timer": "S1603301014.462234,VS0,VE218",
    "content-type": "text/plain; charset=utf-8",
    "accept-ranges": "bytes",
    "strict-transport-security": "max-age=31536000",
    "expires": "Wed, 21 Oct 2020 17:28:34 GMT",
    "x-xss-protection": "1; mode=block",
    "x-github-request-id": "AD4A:0A89:114400:14362D:5F906E96",
    "date": "Wed, 21 Oct 2020 17:23:34 GMT",
    "cache-control": "max-age=300",
    "via": "1.1 varnish (Varnish/6.0),1.1 varnish",
    "x-frame-options": "deny",
    "x-cache": "MISS, MISS",
    "x-cache-hits": "0, 0"
  },
  "url": "https://raw.githubusercontent.com/lodash/lodash/4.17.15-es/some.js"
}