{
  "headers": {
    "x-timer": "S1603301016.116316,VS0,VE130",
    "strict-transport-security": "max-age=31536000",
    "access-control-allow-origin": "*",
    "content-security-policy": "default-src 'none'; style-src 'unsafe-inline'; sandbox",
    "via": "1.1 varnish (Varnish/6.0),1.1 varnish",
    "x-content-type-options": "nosniff",
    "x-frame-options": "deny",
    "x-served-by": "cache-fty21347-FTY",
    "x-fastly-request-id": "d45ff7535300f9c53f241976c99e41eb7956a335",
    "vary": "Authorization,Accept-Encoding",
    "x-github-request-id": "8FBE:0AB7:1101E3:13D845:5F906E97",
    "content-type": "text/plain; charset=utf-8",
    "x-cache-hits": "0, 0",
    "x-cache": "MISS, MISS",
    "source-age": "0",
    "date": "Wed, 21 Oct 2020 17:23:36 GMT",
    "connection": "keep-alive",
    "cache-control": "max-age=300",
    "etag": "W/\"365d1f6a8cc61c825a2ddab09e362d07428084b1d10cbcba695310c29b0f2815\"",
    "x-xss-protection": "1; mode=block",
    "accept-ranges": "bytes",
    "expires": "Wed, 21 Oct 2020 17:28:36 GMT"
  },
  "url": "https://raw.githubusercontent.com/lodash/lodash/4.17.15-es/_baseRange.js"
}