{
  "headers": {
    "access-control-allow-origin": "*",
    "source-age": "0",
    "x-fastly-request-id": "8b5403ac56eecdf84e90e31d3b88bfe3f9e9bfb1",
    "x-timer": "S1603301016.127147,VS0,VE139",
    "content-security-policy": "default-src 'none'; style-src 'unsafe-inline'; sandbox",
    "x-served-by": "cache-fty21322-FTY",
    "x-cache-hits": "0, 0",
    "x-cache": "MISS, MISS",
    "content-type": "text/plain; charset=utf-8",
    "via": "1.1 varnish (Varnish/6.0),1.1 varnish",
    "vary": "Authorization,Accept-Encoding",
    "x-xss-protection": "1; mode=block",
    "date": "Wed, 21 Oct 2020 17:23:36 GMT",
    "cache-control": "max-age=300",
    "strict-transport-security": "max-age=31536000",
    "x-content-type-options": "nosniff",
    "x-github-request-id": "F35E:107D:2EB965:3609AF:5F906E97",
    "expires": "Wed, 21 Oct 2020 17:28:36 GMT",
    "etag": "W/\"508eeb953a10747252b2c4182c46de477c045ccf390509a409533f9ebcfa9803\"",
    "accept-ranges": "bytes",
    "x-frame-options": "deny",
    "connection": "keep-alive"
  },
  "url": "https://raw.githubusercontent.com/lodash/lodash/4.17.15-es/_stackSet.js"
}