{
  "headers": {
    "connection": "keep-alive",
    "date": "Wed, 21 Oct 2020 17:23:34 GMT",
    "content-type": "text/plain; charset=utf-8",
    "accept-ranges": "bytes",
    "content-security-policy": "default-src 'none'; style-src 'unsafe-inline'; sandbox",
    "x-frame-options": "deny",
    "vary": "Authorization,Accept-Encoding",
    "x-xss-protection": "1; mode=block",
    "x-cache": "MISS, MISS",
    "x-fastly-request-id": "40489e7d218270ee8138d4c36d4e48dbd76f43f4",
    "x-timer": "S1603301015.819767,VS0,VE114",
    "access-control-allow-origin": "*",
    "via": "1.1 varnish (Varnish/6.0),1.1 varnish",
    "cache-control": "max-age=300",
    "x-cache-hits": "0, 0",
    "strict-transport-security": "max-age=31536000",
    "etag": "W/\"9dda25c656e101cd4501b933b49ff18ae8bcefce437b184eaecbd51f9f180554\"",
    "x-github-request-id": "23C0:0AD5:231875:287372:5F906E96",
    "source-age": "0",
    "x-served-by": "cache-fty21380-FTY",
    "expires": "Wed, 21 Oct 2020 17:28:34 GMT",
    "x-content-type-options": "nosniff"
  },
  "url": "https://raw.githubusercontent.com/lodash/lodash/4.17.15-es/_createAggregator.js"
}