{
  "headers": {
    "expires": "Wed, 21 Oct 2020 17:28:34 GMT",
    "x-content-type-options": "nosniff",
    "cache-control": "max-age=300",
    "x-frame-options": "deny",
    "date": "Wed, 21 Oct 2020 17:23:34 GMT",
    "content-type": "text/plain; charset=utf-8",
    "x-cache-hits": "0, 0",
    "etag": "W/\"aa1b2d5ccc7dfd2696de9ae21029bf494dcbcb7209b087ea76c1389cd5d670e6\"",
    "x-xss-protection": "1; mode=block",
    "x-github-request-id": "4B7C:66AE:163C9E:1A050E:5F906E96",
    "connection": "keep-alive",
    "strict-transport-security": "max-age=31536000",
    "source-age": "0",
    "accept-ranges": "bytes",
    "via": "1.1 varnish (Varnish/6.0),1.1 varnish",
    "x-cache": "MISS, MISS",
    "x-timer": "S1603301014.490981,VS0,VE244",
    "vary": "Authorization,Accept-Encoding",
    "access-control-allow-origin": "*",
    "x-served-by": "cache-fty21378-FTY",
    "x-fastly-request-id": "4a4d10a96bdd6aa12b51d1e7d25565c1818332ac",
    "content-security-policy": "default-src 'none'; style-src 'unsafe-inline'; sandbox"
  },
  "url": "https://raw.githubusercontent.com/lodash/lodash/4.17.15-es/update.js"
}